1.100000000000000000e+02,0.000000000000000000e+00,0.000000000000000000e+00
1.100000000000000000e+02,8.000000000000000444e-01,0.000000000000000000e+00
1.100000000000000000e+02,1.600000000000000089e+00,0.000000000000000000e+00
1.100000000000000000e+02,2.399999999999999911e+00,0.000000000000000000e+00
1.100000000000000000e+02,3.200000000000000178e+00,0.000000000000000000e+00
1.100000000000000000e+02,4.000000000000000000e+00,0.000000000000000000e+00
1.100000000000000000e+02,4.799999999999999822e+00,0.000000000000000000e+00
1.100000000000000000e+02,5.599999999999999645e+00,0.000000000000000000e+00
1.100000000000000000e+02,6.400000000000000355e+00,0.000000000000000000e+00
1.100000000000000000e+02,7.200000000000000178e+00,0.000000000000000000e+00
1.100000000000000000e+02,8.000000000000000000e+00,0.000000000000000000e+00
1.100000000000000000e+02,8.800000000000000711e+00,0.000000000000000000e+00
1.100000000000000000e+02,9.599999999999999645e+00,0.000000000000000000e+00
1.100000000000000000e+02,1.040000000000000036e+01,0.000000000000000000e+00
1.100000000000000000e+02,1.119999999999999929e+01,0.000000000000000000e+00
1.100000000000000000e+02,1.200000000000000000e+01,0.000000000000000000e+00
1.100000000000000000e+02,1.280000000000000071e+01,0.000000000000000000e+00
1.100000000000000000e+02,1.359999999999999964e+01,0.000000000000000000e+00
1.100000000000000000e+02,1.440000000000000036e+01,0.000000000000000000e+00
1.100000000000000000e+02,1.519999999999999929e+01,0.000000000000000000e+00
1.100000000000000000e+02,1.600000000000000000e+01,0.000000000000000000e+00
1.100000000000000000e+02,1.680000000000000071e+01,0.000000000000000000e+00
1.100000000000000000e+02,1.760000000000000142e+01,0.000000000000000000e+00
1.100000000000000000e+02,1.839999999999999858e+01,0.000000000000000000e+00
1.100000000000000000e+02,1.919999999999999929e+01,0.000000000000000000e+00
1.100000000000000000e+02,2.000000000000000000e+01,0.000000000000000000e+00
1.100000000000000000e+02,2.080000000000000071e+01,0.000000000000000000e+00
1.100000000000000000e+02,2.160000000000000142e+01,0.000000000000000000e+00
1.100000000000000000e+02,2.239999999999999858e+01,0.000000000000000000e+00
1.100000000000000000e+02,2.319999999999999929e+01,0.000000000000000000e+00
1.100000000000000000e+02,2.400000000000000000e+01,0.000000000000000000e+00
1.100000000000000000e+02,2.480000000000000071e+01,0.000000000000000000e+00
1.100000000000000000e+02,2.560000000000000142e+01,0.000000000000000000e+00
1.100000000000000000e+02,2.639999999999999858e+01,0.000000000000000000e+00
1.100000000000000000e+02,2.719999999999999929e+01,0.000000000000000000e+00
1.100000000000000000e+02,2.800000000000000000e+01,0.000000000000000000e+00
1.100000000000000000e+02,2.880000000000000071e+01,0.000000000000000000e+00
1.100000000000000000e+02,2.960000000000000142e+01,0.000000000000000000e+00
1.100000000000000000e+02,3.039999999999999858e+01,0.000000000000000000e+00
1.100000000000000000e+02,3.119999999999999929e+01,0.000000000000000000e+00
1.100000000000000000e+02,3.200000000000000000e+01,0.000000000000000000e+00
1.100000000000000000e+02,3.279999999999999716e+01,0.000000000000000000e+00
1.100000000000000000e+02,3.360000000000000142e+01,0.000000000000000000e+00
1.100000000000000000e+02,3.439999999999999858e+01,0.000000000000000000e+00
1.100000000000000000e+02,3.520000000000000284e+01,0.000000000000000000e+00
1.100000000000000000e+02,3.600000000000000000e+01,0.000000000000000000e+00
1.100000000000000000e+02,3.679999999999999716e+01,0.000000000000000000e+00
1.100000000000000000e+02,3.760000000000000142e+01,0.000000000000000000e+00
1.100000000000000000e+02,3.839999999999999858e+01,0.000000000000000000e+00
1.100000000000000000e+02,3.920000000000000284e+01,0.000000000000000000e+00
1.100000000000000000e+02,4.000000000000000000e+01,0.000000000000000000e+00
1.100000000000000000e+02,3.999122732588994467e+01,8.376974209064382837e-01
1.100000000000000000e+02,3.996491315155033419e+01,1.675027399489054325e+00
1.100000000000000000e+02,3.992106901926496931e+01,2.511622654596614268e+00
1.100000000000000000e+02,3.985971416054804450e+01,3.347116227352363360e+00
1.100000000000000000e+02,3.978087548770860593e+01,4.181141642114561741e+00
1.100000000000000000e+02,3.968458758204585024e+01,5.013333067225046236e+00
1.100000000000000000e+02,3.957089267868064297e+01,5.843325475475335651e+00
1.100000000000000000e+02,3.943984064802972256e+01,6.670754804219859224e+00
1.100000000000000000e+02,3.929148897393092454e+01,7.495258115066106619e+00
1.100000000000000000e+02,3.912590272842877681e+01,8.316473753071644381e+00
1.100000000000000000e+02,3.894315454323171366e+01,9.134041505378156955e+00
1.100000000000000000e+02,3.874332457785339301e+01,9.947602759212946566e+00
1.100000000000000000e+02,3.852650048445199360e+01,1.075680065918859540e+01
1.100000000000000000e+02,3.829277736938304599e+01,1.156128026383175111e+01
1.100000000000000000e+02,3.804225775148258037e+01,1.236068870127242469e+01
1.100000000000000000e+02,3.777505151709888054e+01,1.315467532402549367e+01
1.100000000000000000e+02,3.749127587189269661e+01,1.394289186279650039e+01
1.100000000000000000e+02,3.719105528942678518e+01,1.472499257924430793e+01
1.100000000000000000e+02,3.687452145656772018e+01,1.550063441763357908e+01
1.100000000000000000e+02,3.654181321572352914e+01,1.626947715531060012e+01
1.100000000000000000e+02,3.619307650394272713e+01,1.703118355193639744e+01
1.100000000000000000e+02,3.582846428890145773e+01,1.778541949741171280e+01
1.100000000000000000e+02,3.544813650180668674e+01,1.853185415842895623e+01
1.100000000000000000e+02,3.505225996724495019e+01,1.927016012358685160e+01
1.100000000000000000e+02,3.464100833000754420e+01,2.000001354700410872e+01
1.100000000000000000e+02,3.421456197892399587e+01,2.072109429036914108e+01
1.100000000000000000e+02,3.377310796773748081e+01,2.143308606336351474e+01
1.100000000000000000e+02,3.331683993305672686e+01,2.213567656239755621e+01
1.100000000000000000e+02,3.284595800942050658e+01,2.282855760759722585e+01
1.100000000000000000e+02,3.236066874151181594e+01,2.351142527798219106e+01
1.100000000000000000e+02,3.186118499356049938e+01,2.418398004477582575e+01
1.100000000000000000e+02,3.134772585597374572e+01,2.484592690278861937e+01
1.100000000000000000e+02,3.082051654923570538e+01,2.549697549981738831e+01
1.100000000000000000e+02,3.027978832511816165e+01,2.613684026400356331e+01
1.100000000000000000e+02,2.972577836524573414e+01,2.676524052909460494e+01
1.100000000000000000e+02,2.915872967706000907e+01,2.738190065755370028e+01
1.100000000000000000e+02,2.857889098722828791e+01,2.798655016146366492e+01
1.100000000000000000e+02,2.798651663254367605e+01,2.857892382117206864e+01
1.100000000000000000e+02,2.738186644836441275e+01,2.915876180162551634e+01
1.100000000000000000e+02,2.676520565464133483e+01,2.972580976634203864e+01
1.100000000000000000e+02,2.613680473958341111e+01,3.027981898897168378e+01
1.100000000000000000e+02,2.549693934101256332e+01,3.082054646239624773e+01
1.100000000000000000e+02,2.484589012545959008e+01,3.134775500532039416e+01
1.100000000000000000e+02,2.418394266505437429e+01,3.186121336630735712e+01
1.100000000000000000e+02,2.351138731226431844e+01,3.236069632521365236e+01
1.100000000000000000e+02,2.282851907253597901e+01,3.284598479197816800e+01
1.100000000000000000e+02,2.213563747489571298e+01,3.331686590272249049e+01
1.100000000000000000e+02,2.143304644056616226e+01,3.377313311312016708e+01
1.100000000000000000e+02,2.072105414965617953e+01,3.421458628899400622e+01
1.100000000000000000e+02,1.999997290598261301e+01,3.464103179410165012e+01
1.100000000000000000e+02,1.927011900008333711e+01,3.505228257507101830e+01
1.100000000000000000e+02,1.853181257048157704e+01,3.544815824344814814e+01
1.100000000000000000e+02,1.778537746326234981e+01,3.582848515482170626e+01
1.100000000000000000e+02,1.703114109002264343e+01,3.619309648498926180e+01
1.100000000000000000e+02,1.626943428425768090e+01,3.654183230313199715e+01
1.100000000000000000e+02,1.550059115624618222e+01,3.687453964196573963e+01
1.100000000000000000e+02,1.472494894649833519e+01,3.719107256483761859e+01
1.100000000000000000e+02,1.394284787783074897e+01,3.749129222973876807e+01
1.100000000000000000e+02,1.315463100613324876e+01,3.777506695020510108e+01
1.100000000000000000e+02,1.236064406989300757e+01,3.804227225307945304e+01
1.100000000000000000e+02,1.156123533854199081e+01,3.829279093310969273e+01
1.100000000000000000e+02,1.075675545969423830e+01,3.852651310435889798e+01
1.100000000000000000e+02,9.947557305340012590e+00,3.874333624840504342e+01
1.100000000000000000e+02,9.133995817064247902e+00,3.894316525930901918e+01
1.100000000000000000e+02,8.316427850357197116e+00,3.912591248533129118e+01
1.100000000000000000e+02,7.495212018085597450e+00,3.929149776737894939e+01
1.100000000000000000e+02,6.670708533192977185e+00,3.943984847416615480e+01
1.100000000000000000e+02,5.843279050698113153e+00,3.957089953407266592e+01
1.100000000000000000e+02,5.013286509060955964e+00,3.968459346368647545e+01
1.100000000000000000e+02,4.181094970985581583e+00,3.978088039301793799e+01
1.100000000000000000e+02,3.347069463730025785e+00,3.985971808737445343e+01
1.100000000000000000e+02,2.511575818993018849e+00,3.992107196588600004e+01
1.100000000000000000e+02,1.674980512447876269e+00,3.996491511667352370e+01
1.100000000000000000e+02,8.376505029939135261e-01,3.999122830865331224e+01
1.100000000000000000e+02,-4.692820409355943754e-05,3.999999999997247357e+01
1.100000000000000000e+02,-8.377443388178085204e-01,3.999122634307153135e+01
1.100000000000000000e+02,-1.675074286527924006e+00,3.996491118637214157e+01
1.100000000000000000e+02,-2.511669490196747567e+00,3.992106607258897810e+01
1.100000000000000000e+02,-3.347162990970087737e+00,3.985971023366678168e+01
1.100000000000000000e+02,-4.181188313237776732e+00,3.978087058234451945e+01
1.100000000000000000e+02,-5.013379625382227367e+00,3.968458170035060562e+01
1.100000000000000000e+02,-5.843371900244502370e+00,3.957088582323414272e+01
1.100000000000000000e+02,-6.670801075237545064e+00,3.943983282183901196e+01
1.100000000000000000e+02,-7.495304212036283609e+00,3.929148018042882029e+01
1.100000000000000000e+02,-8.316519655774625264e+00,3.912589297147241041e+01
1.100000000000000000e+02,-9.134087193679471639e+00,3.894314382710081901e+01
1.100000000000000000e+02,-9.947648213072167067e+00,3.874331290724842347e+01
1.100000000000000000e+02,-1.075684585866812526e+01,3.852648786449206852e+01
1.100000000000000000e+02,-1.156132518910557572e+01,3.829276380560370541e+01
1.100000000000000000e+02,-1.236073333263480478e+01,3.804224324983334782e+01
1.100000000000000000e+02,-1.315471964189961085e+01,3.777503608394068380e+01
1.100000000000000000e+02,-1.394293584774304051e+01,3.749125951399501844e+01
1.100000000000000000e+02,-1.472503621196999113e+01,3.719103801396477138e+01
1.100000000000000000e+02,-1.550067767899961879e+01,3.687450327111896087e+01
1.100000000000000000e+02,-1.626952002634110528e+01,3.654179412826476891e+01
1.100000000000000000e+02,-1.703122601382668933e+01,3.619305652284638342e+01
1.100000000000000000e+02,-1.778546153153657272e+01,3.582844342293191175e+01
1.100000000000000000e+02,-1.853189574635080561e+01,3.544811476011643947e+01
1.100000000000000000e+02,-1.927020124706382376e+01,3.505223735937065754e+01
1.100000000000000000e+02,-2.000005418799805668e+01,3.464098486586577508e+01
1.100000000000000000e+02,-2.072113443105355657e+01,3.421453766880690495e+01
1.100000000000000000e+02,-2.143312568613134061e+01,3.377308282230831082e+01
1.100000000000000000e+02,-2.213571564986891360e+01,3.331681396334511902e+01
1.100000000000000000e+02,-2.282859614262703118e+01,3.284593122681764044e+01
1.100000000000000000e+02,-2.351146324366768425e+01,3.236064115776545691e+01
1.100000000000000000e+02,-2.418401742446397407e+01,3.186115662076979405e+01
1.100000000000000000e+02,-2.484596368008343248e+01,3.134769670658396379e+01
1.100000000000000000e+02,-2.549701165858710539e+01,3.082048663603274719e+01
1.100000000000000000e+02,-2.613687578838772652e+01,3.027975766122297330e+01
1.100000000000000000e+02,-2.676527540351102630e+01,2.972574696410853079e+01
1.100000000000000000e+02,-2.738193486670528287e+01,2.915869755245438810e+01
1.100000000000000000e+02,-2.798658369034512106e+01,2.857885815324518219e+01
1.100000000000000000e+02,-2.857895665507650307e+01,2.798648310358517577e+01
1.100000000000000000e+02,-2.915879392615086374e+01,2.738183223913745579e+01
1.100000000000000000e+02,-2.972584116739741233e+01,2.676517078015123374e+01
1.100000000000000000e+02,-3.027984965278351481e+01,2.613676921512729479e+01
1.100000000000000000e+02,-3.082057637551435647e+01,2.549690318217265883e+01
1.100000000000000000e+02,-3.134778415462387358e+01,2.484585334809638368e+01
1.100000000000000000e+02,-3.186124173901035306e+01,2.418390528529965522e+01
1.100000000000000000e+02,-3.236072390887093064e+01,2.351134934651410902e+01
1.100000000000000000e+02,-3.284601157449061049e+01,2.282848053744332972e+01
1.100000000000000000e+02,-3.331689187234238148e+01,2.213559838736341590e+01
1.100000000000000000e+02,-3.377315825845636255e+01,2.143300681773933647e+01
1.100000000000000000e+02,-3.421461059901690049e+01,2.072101400891472878e+01
1.100000000000000000e+02,-3.464105525814806441e+01,1.999993226493361220e+01
1.100000000000000000e+02,-3.505230518284881924e+01,1.927007787655332649e+01
1.100000000000000000e+02,-3.544817998504080947e+01,1.853177098250872135e+01
1.100000000000000000e+02,-3.582850602069263601e+01,1.778533542908852993e+01
1.100000000000000000e+02,-3.619311646598597321e+01,1.703109862808547348e+01
1.100000000000000000e+02,-3.654185139049015163e+01,1.626939141318239379e+01
1.100000000000000000e+02,-3.687455782731299081e+01,1.550054789483747442e+01
1.100000000000000000e+02,-3.719108984019725739e+01,1.472490531373212441e+01
1.100000000000000000e+02,-3.749130858753323281e+01,1.394280389284583421e+01
1.100000000000000000e+02,-3.777508238325931700e+01,1.315458668822292765e+01
1.100000000000000000e+02,-3.804228675462395870e+01,1.236059943849660669e+01
1.100000000000000000e+02,-3.829280449678362430e+01,1.156119041323634455e+01
1.100000000000000000e+02,-3.852652572421277455e+01,1.075671026018510190e+01
1.100000000000000000e+02,-3.874334791890336760e+01,9.947511851453416654e+00
1.100000000000000000e+02,-3.894317597533270714e+01,9.133950128737795993e+00
1.100000000000000000e+02,-3.912592224217994641e+01,8.316381947631329652e+00
1.100000000000000000e+02,-3.929150656077289483e+01,7.495165921094796957e+00
1.100000000000000000e+02,-3.943985630024829447e+01,6.670662262156938027e+00
1.100000000000000000e+02,-3.957090638941023286e+01,5.843232625912872180e+00
1.100000000000000000e+02,-3.968459934527247412e+01,5.013239950889987639e+00
1.100000000000000000e+02,-3.978088529827251563e+01,4.181048299850869121e+00
1.100000000000000000e+02,-3.985972201414598715e+01,3.347022700103102100e+00
1.100000000000000000e+02,-3.992107491245209872e+01,2.511528983385987068e+00
1.100000000000000000e+02,-3.996491708174170299e+01,1.674933625404411597e+00
1.100000000000000000e+02,-3.999122929136163407e+01,8.376035850802543425e-01
1.100000000000000000e+02,-3.999999999988988719e+01,-9.385640816929072890e-05
1.100000000000000000e+02,-3.999122536019807939e+01,-8.377912567280088041e-01
1.100000000000000000e+02,-3.996490922113893873e+01,-1.675121173564471988e+00
1.100000000000000000e+02,-3.992106312585804773e+01,-2.511716325793408089e+00
1.100000000000000000e+02,-3.985970630673065074e+01,-3.347209754583190033e+00
1.100000000000000000e+02,-3.978086567692568565e+01,-4.181234984355224782e+00
1.100000000000000000e+02,-3.968457581860074157e+01,-5.013426183532493141e+00
1.100000000000000000e+02,-3.957087896773318647e+01,-5.843418325005615976e+00
1.100000000000000000e+02,-3.943982499559400878e+01,-6.670847346246038256e+00
1.100000000000000000e+02,-3.929147138687264373e+01,-7.495350308996133748e+00
1.100000000000000000e+02,-3.912588321446219197e+01,-8.316565558466152197e+00
1.100000000000000000e+02,-3.894313311091632102e+01,-9.134132881968206163e+00
1.100000000000000000e+02,-3.874330123659012770e+01,-9.947693666917686528e+00
1.100000000000000000e+02,-3.852647524447910854e+01,-1.075689105813284208e+01
1.100000000000000000e+02,-3.829275024177164966e+01,-1.156137011436348061e+01
1.100000000000000000e+02,-3.804222874813176247e+01,-1.236077796398016737e+01
1.100000000000000000e+02,-3.777502065073048954e+01,-1.315476395975561630e+01
1.100000000000000000e+02,-3.749124315604574775e+01,-1.394297983267038354e+01
1.100000000000000000e+02,-3.719102073845156298e+01,-1.472507984467539899e+01
1.100000000000000000e+02,-3.687448508561944749e+01,-1.550072094034431913e+01
1.100000000000000000e+02,-3.654177504075572358e+01,-1.626956289734921413e+01
1.100000000000000000e+02,-3.619303654170022355e+01,-1.703126847569353686e+01
1.100000000000000000e+02,-3.582842255691304700e+01,-1.778550356563695090e+01
1.100000000000000000e+02,-3.544809301837740634e+01,-1.853193733424713940e+01
1.100000000000000000e+02,-3.505221475144811905e+01,-1.927024237051426425e+01
1.100000000000000000e+02,-3.464096140167632143e+01,-2.000009482896447111e+01
1.100000000000000000e+02,-3.421451335864273346e+01,-2.072117457170944732e+01
1.100000000000000000e+02,-3.377305767683266424e+01,-2.143316530886966476e+01
1.100000000000000000e+02,-3.331678799358765275e+01,-2.213575473730980292e+01
1.100000000000000000e+02,-3.284590444416956956e+01,-2.282863467762541632e+01
1.100000000000000000e+02,-3.236061357397455396e+01,-2.351150120932080867e+01
1.100000000000000000e+02,-3.186112824793524112e+01,-2.418405480411882991e+01
1.100000000000000000e+02,-3.134766755715103770e+01,-2.484600045734403650e+01
1.100000000000000000e+02,-3.082045672278738024e+01,-2.549704781732172165e+01
1.100000000000000000e+02,-3.027972699728611161e+01,-2.613691131273591139e+01
1.100000000000000000e+02,-2.972571556293041795e+01,-2.676531027789060246e+01
1.100000000000000000e+02,-2.915866542780863568e+01,-2.738196907581917117e+01
1.100000000000000000e+02,-2.857882531922274438e+01,-2.798661721918805156e+01
1.100000000000000000e+02,-2.798644957458816052e+01,-2.857898948894159474e+01
1.100000000000000000e+02,-2.738179802987281164e+01,-2.915882605063607969e+01
1.100000000000000000e+02,-2.676513590562429457e+01,-2.972587256841186587e+01
1.100000000000000000e+02,-2.613673369063519658e+01,-3.027988031655367962e+01
1.100000000000000000e+02,-2.549686702329765353e+01,-3.082060628859004936e+01
1.100000000000000000e+02,-2.484581657069896465e+01,-3.134781330388422305e+01
1.100000000000000000e+02,-2.418386790551163656e+01,-3.186127011166949785e+01
1.100000000000000000e+02,-2.351131138073152016e+01,-3.236075149248367211e+01
1.100000000000000000e+02,-2.282844200231924958e+01,-3.284603835695784824e+01
1.100000000000000000e+02,-2.213555929980064363e+01,-3.331691784191642114e+01
1.100000000000000000e+02,-2.143296719488299473e+01,-3.377318340374607430e+01
1.100000000000000000e+02,-2.072097386814473552e+01,-3.421463490899271420e+01
1.100000000000000000e+02,-1.999989162385706720e+01,-3.464107872214680128e+01
1.100000000000000000e+02,-1.927003675299677354e+01,-3.505232779057838144e+01
1.100000000000000000e+02,-1.853172939451034296e+01,-3.544820172658468493e+01
1.100000000000000000e+02,-1.778529339489021766e+01,-3.582852688651424700e+01
1.100000000000000000e+02,-1.703105616612484141e+01,-3.619313644693287557e+01
1.100000000000000000e+02,-1.626934854208469616e+01,-3.654187047779802100e+01
1.100000000000000000e+02,-1.550050463340742013e+01,-3.687457601260948792e+01
1.100000000000000000e+02,-1.472486168094562942e+01,-3.719110711550570869e+01
1.100000000000000000e+02,-1.394275990784170816e+01,-3.749132494527609794e+01
1.100000000000000000e+02,-1.315454237029447881e+01,-3.777509781626153540e+01
1.100000000000000000e+02,-1.236055480708317589e+01,-3.804230125611610447e+01
1.100000000000000000e+02,-1.156114548791476970e+01,-3.829281806040484781e+01
1.100000000000000000e+02,-1.075666506066114536e+01,-3.852653834401361621e+01
1.100000000000000000e+02,-9.947466397553110795e+00,-3.874335958934836555e+01
1.100000000000000000e+02,-9.133904440398755042e+00,-3.894318669130280597e+01
1.100000000000000000e+02,-8.316336044893997581e+00,-3.912593199897475671e+01
1.100000000000000000e+02,-7.495119824093663397e+00,-3.929151535411275376e+01
1.100000000000000000e+02,-6.670615991111700005e+00,-3.943986412627615579e+01
1.100000000000000000e+02,-5.843186201119570100e+00,-3.957091324469332960e+01
1.100000000000000000e+02,-5.013193392712100405e+00,-3.968460522680385338e+01
1.100000000000000000e+02,-4.181001628710384388e+00,-3.978089020347233173e+01
1.100000000000000000e+02,-3.346975936471554114e+00,-3.985972594086266696e+01
1.100000000000000000e+02,-2.511482147775480733e+00,-3.992107785896323691e+01
1.100000000000000000e+02,-1.674886738358624116e+00,-3.996491904675487206e+01
1.100000000000000000e+02,-8.375566671654244288e-01,-3.999123027401491015e+01
1.100000000000000000e+02,1.407846122626563992e-04,-3.999999999975224796e+01
1.100000000000000000e+02,8.378381746370735517e-01,-3.999122437726958168e+01
1.100000000000000000e+02,1.675168060598731801e+00,-3.996490725585072568e+01
1.100000000000000000e+02,2.511763161386629584e+00,-3.992106017907216398e+01
1.100000000000000000e+02,3.347256518191703556e+00,-3.985970237973965169e+01
1.100000000000000000e+02,4.181281655466934311e+00,-3.978086077145208321e+01
1.100000000000000000e+02,5.013472741675878197e+00,-3.968456993679625100e+01
1.100000000000000000e+02,5.843464749758703114e+00,-3.957087211217776002e+01
