1.099899999999999949e+02,-1.000000000000000021e-02,0.000000000000000000e+00
1.099899999999999949e+02,-1.000000000000000021e-02,0.000000000000000000e+00
1.099899999999999949e+02,-1.000000000000000021e-02,0.000000000000000000e+00
1.100600000000000023e+02,2.000000000000000042e-02,-2.600000000000000089e-01
1.078100000000000023e+02,3.900000000000000133e-01,-6.589999999999999858e+00
1.039399999999999977e+02,7.700000000000000178e-01,-1.113000000000000078e+01
9.950000000000000000e+01,1.389999999999999902e+00,-1.583999999999999986e+01
9.565000000000000568e+01,1.939999999999999947e+00,-2.108999999999999986e+01
9.295999999999999375e+01,2.450000000000000178e+00,-2.716000000000000014e+01
9.031000000000000227e+01,3.020000000000000018e+00,-3.403999999999999915e+01
8.626999999999999602e+01,3.509999999999999787e+00,-4.152000000000000313e+01
7.981000000000000227e+01,3.560000000000000053e+00,-4.932999999999999829e+01
7.087999999999999545e+01,3.180000000000000160e+00,-5.667000000000000171e+01
6.010000000000000142e+01,2.290000000000000036e+00,-6.296000000000000085e+01
4.297999999999999687e+01,1.900000000000000022e-01,-6.959000000000000341e+01
3.198000000000000043e+01,-1.449999999999999956e+00,-7.184999999999999432e+01
2.191000000000000014e+01,-2.779999999999999805e+00,-7.276000000000000512e+01
8.900000000000000355e+00,-4.120000000000000107e+00,-7.156000000000000227e+01
1.830000000000000071e+00,-4.419999999999999929e+00,-6.931999999999999318e+01
-3.669999999999999929e+00,-4.169999999999999929e+00,-6.629999999999999716e+01
-7.549999999999999822e+00,-3.770000000000000018e+00,-6.297999999999999687e+01
-9.740000000000000213e+00,-3.270000000000000018e+00,-5.992000000000000171e+01
-1.050999999999999979e+01,-3.000000000000000000e+00,-5.828999999999999915e+01
-1.019999999999999929e+01,-3.209999999999999964e+00,-5.907000000000000028e+01
-8.570000000000000284e+00,-3.830000000000000071e+00,-6.188000000000000256e+01
-5.419999999999999929e+00,-4.790000000000000036e+00,-6.615999999999999659e+01
-5.999999999999999778e-02,-6.120000000000000107e+00,-7.170999999999999375e+01
8.099999999999999645e+00,-7.740000000000000213e+00,-7.740000000000000568e+01
2.125000000000000000e+01,-9.199999999999999289e+00,-8.109999999999999432e+01
2.982999999999999829e+01,-9.750000000000000000e+00,-8.043000000000000682e+01
3.800999999999999801e+01,-1.000999999999999979e+01,-7.787999999999999545e+01
4.611999999999999744e+01,-1.003999999999999915e+01,-7.415999999999999659e+01
5.864999999999999858e+01,-1.002999999999999936e+01,-6.773000000000000398e+01
6.709999999999999432e+01,-9.980000000000000426e+00,-6.309000000000000341e+01
7.503000000000000114e+01,-9.810000000000000497e+00,-5.818999999999999773e+01
8.426999999999999602e+01,-9.210000000000000853e+00,-5.059000000000000341e+01
8.815999999999999659e+01,-8.519999999999999574e+00,-4.588000000000000256e+01
9.135999999999999943e+01,-7.290000000000000036e+00,-4.013000000000000256e+01
9.254000000000000625e+01,-6.450000000000000178e+00,-3.756000000000000227e+01
9.339000000000000057e+01,-5.669999999999999929e+00,-3.613000000000000256e+01
9.382999999999999829e+01,-4.929999999999999716e+00,-3.589999999999999858e+01
9.296999999999999886e+01,-3.950000000000000178e+00,-3.764999999999999858e+01
9.114000000000000057e+01,-3.319999999999999840e+00,-4.003000000000000114e+01
8.820000000000000284e+01,-2.729999999999999982e+00,-4.317000000000000171e+01
8.045000000000000284e+01,-1.719999999999999973e+00,-5.038000000000000256e+01
7.471999999999999886e+01,-1.169999999999999929e+00,-5.510999999999999943e+01
6.851999999999999602e+01,-6.400000000000000133e-01,-5.989000000000000057e+01
5.840999999999999659e+01,8.999999999999999667e-02,-6.664000000000000057e+01
5.124000000000000199e+01,5.999999999999999778e-01,-7.043000000000000682e+01
4.375000000000000000e+01,9.399999999999999467e-01,-7.340000000000000568e+01
3.611999999999999744e+01,1.209999999999999964e+00,-7.528000000000000114e+01
2.521999999999999886e+01,1.250000000000000000e+00,-7.600000000000000000e+01
1.882000000000000028e+01,1.060000000000000053e+00,-7.532999999999999829e+01
1.350000000000000000e+01,6.999999999999999556e-01,-7.429999999999999716e+01
7.990000000000000213e+00,2.000000000000000042e-02,-7.287000000000000455e+01
6.019999999999999574e+00,-5.999999999999999778e-01,-7.259000000000000341e+01
5.440000000000000391e+00,-1.149999999999999911e+00,-7.306999999999999318e+01
6.139999999999999680e+00,-1.770000000000000018e+00,-7.404000000000000625e+01
9.300000000000000711e+00,-2.569999999999999840e+00,-7.593999999999999773e+01
1.265000000000000036e+01,-3.160000000000000142e+00,-7.703000000000000114e+01
1.762999999999999901e+01,-3.919999999999999929e+00,-7.793999999999999773e+01
2.658999999999999986e+01,-4.889999999999999680e+00,-7.800000000000000000e+01
3.285000000000000142e+01,-5.509999999999999787e+00,-7.723999999999999488e+01
3.952000000000000313e+01,-6.129999999999999893e+00,-7.587999999999999545e+01
4.992000000000000171e+01,-6.849999999999999645e+00,-7.295000000000000284e+01
5.999000000000000199e+01,-7.379999999999999893e+00,-6.901999999999999602e+01
6.584000000000000341e+01,-7.540000000000000036e+00,-6.595000000000000284e+01
7.281999999999999318e+01,-7.500000000000000000e+00,-6.096999999999999886e+01
7.623000000000000398e+01,-7.339999999999999858e+00,-5.775000000000000000e+01
7.881999999999999318e+01,-7.080000000000000071e+00,-5.495000000000000284e+01
8.084000000000000341e+01,-6.750000000000000000e+00,-5.270000000000000284e+01
8.293000000000000682e+01,-6.129999999999999893e+00,-5.064999999999999858e+01
8.362000000000000455e+01,-5.389999999999999680e+00,-5.029999999999999716e+01
8.248000000000000398e+01,-4.610000000000000320e+00,-5.145000000000000284e+01
8.068000000000000682e+01,-4.059999999999999609e+00,-5.293999999999999773e+01
7.634000000000000341e+01,-3.129999999999999893e+00,-5.632000000000000028e+01
7.018000000000000682e+01,-2.120000000000000107e+00,-6.075000000000000000e+01
6.575000000000000000e+01,-1.550000000000000044e+00,-6.361999999999999744e+01
6.089000000000000057e+01,-1.060000000000000053e+00,-6.646999999999999886e+01
5.300999999999999801e+01,-4.299999999999999933e-01,-7.026999999999999602e+01
4.759000000000000341e+01,-1.900000000000000022e-01,-7.229000000000000625e+01
4.228000000000000114e+01,-0.000000000000000000e+00,-7.385999999999999943e+01
3.489999999999999858e+01,1.600000000000000033e-01,-7.540000000000000568e+01
3.069000000000000128e+01,4.000000000000000083e-02,-7.593999999999999773e+01
2.719000000000000128e+01,-2.999999999999999889e-02,-7.637000000000000455e+01
2.453000000000000114e+01,-2.700000000000000178e-01,-7.654999999999999716e+01
2.217999999999999972e+01,-6.300000000000000044e-01,-7.684999999999999432e+01
2.176999999999999957e+01,-1.020000000000000018e+00,-7.706999999999999318e+01
2.273999999999999844e+01,-1.580000000000000071e+00,-7.737000000000000455e+01
2.535999999999999943e+01,-2.200000000000000178e+00,-7.754999999999999716e+01
2.796999999999999886e+01,-2.689999999999999947e+00,-7.751000000000000512e+01
3.407999999999999829e+01,-3.680000000000000160e+00,-7.698999999999999488e+01
4.054999999999999716e+01,-4.530000000000000249e+00,-7.585999999999999943e+01
4.740999999999999659e+01,-5.299999999999999822e+00,-7.395999999999999375e+01
5.409000000000000341e+01,-5.950000000000000178e+00,-7.148000000000000398e+01
5.832999999999999829e+01,-6.250000000000000000e+00,-6.953000000000000114e+01
6.220000000000000284e+01,-6.490000000000000213e+00,-6.753000000000000114e+01
6.720000000000000284e+01,-6.730000000000000426e+00,-6.459000000000000341e+01
6.984999999999999432e+01,-6.809999999999999609e+00,-6.281000000000000227e+01
7.192000000000000171e+01,-6.830000000000000071e+00,-6.122999999999999687e+01
7.381000000000000227e+01,-6.690000000000000391e+00,-5.957000000000000028e+01
7.437000000000000455e+01,-6.370000000000000107e+00,-5.885999999999999943e+01
7.376999999999999602e+01,-5.959999999999999964e+00,-5.911999999999999744e+01
7.218000000000000682e+01,-5.429999999999999716e+00,-6.025000000000000000e+01
7.062999999999999545e+01,-5.059999999999999609e+00,-6.139999999999999858e+01
6.809000000000000341e+01,-4.610000000000000320e+00,-6.314000000000000057e+01
6.367999999999999972e+01,-3.959999999999999964e+00,-6.578000000000000114e+01
5.847999999999999687e+01,-3.370000000000000107e+00,-6.831999999999999318e+01
5.470000000000000284e+01,-2.990000000000000213e+00,-6.989000000000000057e+01
4.903999999999999915e+01,-2.470000000000000195e+00,-7.184000000000000341e+01
4.545000000000000284e+01,-2.160000000000000142e+00,-7.295999999999999375e+01
4.214000000000000057e+01,-1.939999999999999947e+00,-7.395000000000000284e+01
3.803999999999999915e+01,-1.800000000000000044e+00,-7.509000000000000341e+01
3.585999999999999943e+01,-1.739999999999999991e+00,-7.578000000000000114e+01
3.370000000000000284e+01,-1.820000000000000062e+00,-7.637000000000000455e+01
3.278999999999999915e+01,-2.009999999999999787e+00,-7.673999999999999488e+01
3.288000000000000256e+01,-2.250000000000000000e+00,-7.684999999999999432e+01
3.346000000000000085e+01,-2.419999999999999929e+00,-7.681000000000000227e+01
3.527000000000000313e+01,-2.790000000000000036e+00,-7.648999999999999488e+01
3.714999999999999858e+01,-3.100000000000000089e+00,-7.618999999999999773e+01
3.990999999999999659e+01,-3.479999999999999982e+00,-7.568999999999999773e+01
4.429999999999999716e+01,-4.030000000000000249e+00,-7.478000000000000114e+01
4.892999999999999972e+01,-4.559999999999999609e+00,-7.351000000000000512e+01
5.202000000000000313e+01,-4.889999999999999680e+00,-7.239000000000000057e+01
5.490999999999999659e+01,-5.219999999999999751e+00,-7.117000000000000171e+01
5.889000000000000057e+01,-5.610000000000000320e+00,-6.926999999999999602e+01
6.232999999999999829e+01,-5.879999999999999893e+00,-6.737999999999999545e+01
6.509999999999999432e+01,-5.990000000000000213e+00,-6.582999999999999829e+01
6.701000000000000512e+01,-6.040000000000000036e+00,-6.470000000000000284e+01
6.770999999999999375e+01,-6.019999999999999574e+00,-6.423999999999999488e+01
6.793999999999999773e+01,-5.959999999999999964e+00,-6.401000000000000512e+01
6.746999999999999886e+01,-5.750000000000000000e+00,-6.415999999999999659e+01
6.670000000000000284e+01,-5.620000000000000107e+00,-6.453000000000000114e+01
6.564000000000000057e+01,-5.400000000000000355e+00,-6.514000000000000057e+01
6.321999999999999886e+01,-5.030000000000000249e+00,-6.656000000000000227e+01
6.017999999999999972e+01,-4.610000000000000320e+00,-6.821999999999999886e+01
5.672999999999999687e+01,-4.160000000000000142e+00,-6.981999999999999318e+01
5.422999999999999687e+01,-3.910000000000000142e+00,-7.081999999999999318e+01
5.175000000000000000e+01,-3.689999999999999947e+00,-7.173000000000000398e+01
4.821999999999999886e+01,-3.359999999999999876e+00,-7.300000000000000000e+01
4.614999999999999858e+01,-3.200000000000000178e+00,-7.373000000000000398e+01
4.436999999999999744e+01,-3.089999999999999858e+00,-7.428000000000000114e+01
4.228999999999999915e+01,-2.910000000000000142e+00,-7.504999999999999716e+01
4.102000000000000313e+01,-2.870000000000000107e+00,-7.551000000000000512e+01
4.064999999999999858e+01,-2.859999999999999876e+00,-7.564000000000000057e+01
4.075000000000000000e+01,-2.959999999999999964e+00,-7.567000000000000171e+01
4.125000000000000000e+01,-3.100000000000000089e+00,-7.556000000000000227e+01
4.206000000000000227e+01,-3.229999999999999982e+00,-7.534999999999999432e+01
4.404999999999999716e+01,-3.399999999999999911e+00,-7.487999999999999545e+01
4.689000000000000057e+01,-3.729999999999999982e+00,-7.412999999999999545e+01
4.882000000000000028e+01,-3.939999999999999947e+00,-7.360999999999999943e+01
5.181000000000000227e+01,-4.250000000000000000e+00,-7.251999999999999602e+01
5.467999999999999972e+01,-4.500000000000000000e+00,-7.135999999999999943e+01
5.649000000000000199e+01,-4.679999999999999716e+00,-7.054000000000000625e+01
5.895000000000000284e+01,-4.900000000000000355e+00,-6.940999999999999659e+01
6.096999999999999886e+01,-5.040000000000000036e+00,-6.845999999999999375e+01
6.235999999999999943e+01,-5.139999999999999680e+00,-6.768000000000000682e+01
6.300000000000000000e+01,-5.150000000000000355e+00,-6.721999999999999886e+01
6.307000000000000028e+01,-5.110000000000000320e+00,-6.710999999999999943e+01
6.290999999999999659e+01,-5.009999999999999787e+00,-6.717000000000000171e+01
6.228999999999999915e+01,-4.950000000000000178e+00,-6.751999999999999602e+01
6.160999999999999943e+01,-4.830000000000000071e+00,-6.793999999999999773e+01
6.056000000000000227e+01,-4.669999999999999929e+00,-6.851000000000000512e+01
5.843999999999999773e+01,-4.469999999999999751e+00,-6.950000000000000000e+01
5.692999999999999972e+01,-4.309999999999999609e+00,-7.014000000000000057e+01
5.535000000000000142e+01,-4.190000000000000391e+00,-7.081000000000000227e+01
5.300000000000000000e+01,-3.979999999999999982e+00,-7.179000000000000625e+01
5.078999999999999915e+01,-3.750000000000000000e+00,-7.267000000000000171e+01
4.942999999999999972e+01,-3.609999999999999876e+00,-7.323999999999999488e+01
4.822999999999999687e+01,-3.540000000000000036e+00,-7.368999999999999773e+01
4.670000000000000284e+01,-3.439999999999999947e+00,-7.420999999999999375e+01
4.586999999999999744e+01,-3.459999999999999964e+00,-7.446999999999999886e+01
4.556000000000000227e+01,-3.450000000000000178e+00,-7.456000000000000227e+01
4.567999999999999972e+01,-3.500000000000000000e+00,-7.457999999999999829e+01
4.607000000000000028e+01,-3.540000000000000036e+00,-7.448999999999999488e+01
4.703999999999999915e+01,-3.649999999999999911e+00,-7.425000000000000000e+01
4.865999999999999659e+01,-3.790000000000000036e+00,-7.379000000000000625e+01
5.050999999999999801e+01,-4.030000000000000249e+00,-7.318999999999999773e+01
5.250000000000000000e+01,-4.139999999999999680e+00,-7.246999999999999886e+01
5.445000000000000284e+01,-4.309999999999999609e+00,-7.167000000000000171e+01
5.627000000000000313e+01,-4.469999999999999751e+00,-7.082999999999999829e+01
5.788000000000000256e+01,-4.549999999999999822e+00,-7.009999999999999432e+01
5.917000000000000171e+01,-4.620000000000000107e+00,-6.954000000000000625e+01
6.004999999999999716e+01,-4.700000000000000178e+00,-6.912000000000000455e+01
6.042999999999999972e+01,-4.660000000000000142e+00,-6.893000000000000682e+01
6.029999999999999716e+01,-4.669999999999999929e+00,-6.889000000000000057e+01
5.977000000000000313e+01,-4.549999999999999822e+00,-6.914000000000000057e+01
5.895000000000000284e+01,-4.440000000000000391e+00,-6.951000000000000512e+01
5.753999999999999915e+01,-4.290000000000000036e+00,-7.018000000000000682e+01
5.603999999999999915e+01,-4.129999999999999893e+00,-7.090000000000000568e+01
5.443999999999999773e+01,-4.040000000000000036e+00,-7.156000000000000227e+01
5.282999999999999829e+01,-3.890000000000000124e+00,-7.225000000000000000e+01
5.139000000000000057e+01,-3.819999999999999840e+00,-7.281000000000000227e+01
5.022999999999999687e+01,-3.759999999999999787e+00,-7.325000000000000000e+01
4.935999999999999943e+01,-3.720000000000000195e+00,-7.359000000000000341e+01
4.890999999999999659e+01,-3.709999999999999964e+00,-7.373999999999999488e+01
4.882000000000000028e+01,-3.740000000000000213e+00,-7.376999999999999602e+01
4.914000000000000057e+01,-3.810000000000000053e+00,-7.370000000000000284e+01
4.979999999999999716e+01,-3.890000000000000124e+00,-7.354999999999999716e+01
5.093999999999999773e+01,-3.990000000000000213e+00,-7.318999999999999773e+01
5.222999999999999687e+01,-4.089999999999999858e+00,-7.273000000000000398e+01
5.357000000000000028e+01,-4.179999999999999716e+00,-7.223999999999999488e+01
5.486999999999999744e+01,-4.309999999999999609e+00,-7.170000000000000284e+01
5.613000000000000256e+01,-4.360000000000000320e+00,-7.114000000000000057e+01
5.718999999999999773e+01,-4.459999999999999964e+00,-7.070000000000000284e+01
5.803000000000000114e+01,-4.509999999999999787e+00,-7.031999999999999318e+01
5.853999999999999915e+01,-4.500000000000000000e+00,-7.009999999999999432e+01
5.871000000000000085e+01,-4.419999999999999929e+00,-6.998000000000000398e+01
5.853000000000000114e+01,-4.419999999999999929e+00,-6.995999999999999375e+01
5.813000000000000256e+01,-4.330000000000000071e+00,-7.015000000000000568e+01
5.747999999999999687e+01,-4.250000000000000000e+00,-7.046999999999999886e+01
5.646000000000000085e+01,-4.169999999999999929e+00,-7.093000000000000682e+01
5.532999999999999829e+01,-4.070000000000000284e+00,-7.140000000000000568e+01
5.421000000000000085e+01,-3.979999999999999982e+00,-7.184000000000000341e+01
5.311999999999999744e+01,-3.959999999999999964e+00,-7.229999999999999716e+01
5.214999999999999858e+01,-3.910000000000000142e+00,-7.270999999999999375e+01
5.134000000000000341e+01,-3.870000000000000107e+00,-7.303000000000000114e+01
5.074000000000000199e+01,-3.919999999999999929e+00,-7.320999999999999375e+01
5.049000000000000199e+01,-3.890000000000000124e+00,-7.334999999999999432e+01
5.054999999999999716e+01,-3.990000000000000213e+00,-7.339000000000000057e+01
5.085999999999999943e+01,-4.059999999999999609e+00,-7.337999999999999545e+01
5.131000000000000227e+01,-4.169999999999999929e+00,-7.318999999999999773e+01
5.203999999999999915e+01,-4.330000000000000071e+00,-7.281000000000000227e+01
5.289000000000000057e+01,-4.440000000000000391e+00,-7.248999999999999488e+01
5.386999999999999744e+01,-4.540000000000000036e+00,-7.214000000000000057e+01
5.485999999999999943e+01,-4.629999999999999893e+00,-7.179000000000000625e+01
5.570000000000000284e+01,-4.679999999999999716e+00,-7.145000000000000284e+01
5.617000000000000171e+01,-4.669999999999999929e+00,-7.123999999999999488e+01
5.672999999999999687e+01,-4.769999999999999574e+00,-7.093999999999999773e+01
5.713000000000000256e+01,-4.730000000000000426e+00,-7.073999999999999488e+01
5.734000000000000341e+01,-4.660000000000000142e+00,-7.071999999999999886e+01
5.732999999999999829e+01,-4.639999999999999680e+00,-7.070999999999999375e+01
5.710000000000000142e+01,-4.540000000000000036e+00,-7.081999999999999318e+01
5.671000000000000085e+01,-4.450000000000000178e+00,-7.096999999999999886e+01
5.584000000000000341e+01,-4.349999999999999645e+00,-7.135999999999999943e+01
5.514999999999999858e+01,-4.269999999999999574e+00,-7.168999999999999773e+01
5.442000000000000171e+01,-4.190000000000000391e+00,-7.200000000000000000e+01
5.371000000000000085e+01,-4.129999999999999893e+00,-7.225000000000000000e+01
5.307999999999999829e+01,-4.099999999999999645e+00,-7.246999999999999886e+01
5.261999999999999744e+01,-4.089999999999999858e+00,-7.265999999999999659e+01
5.232999999999999829e+01,-4.099999999999999645e+00,-7.281999999999999318e+01
5.225999999999999801e+01,-4.179999999999999716e+00,-7.284999999999999432e+01
5.232000000000000028e+01,-4.209999999999999964e+00,-7.289000000000000057e+01
5.253999999999999915e+01,-4.309999999999999609e+00,-7.279999999999999716e+01
5.289999999999999858e+01,-4.379999999999999893e+00,-7.264000000000000057e+01
5.345000000000000284e+01,-4.509999999999999787e+00,-7.240999999999999659e+01
5.407000000000000028e+01,-4.530000000000000249e+00,-7.218999999999999773e+01
5.471000000000000085e+01,-4.629999999999999893e+00,-7.198000000000000398e+01
5.535000000000000142e+01,-4.690000000000000391e+00,-7.170999999999999375e+01
5.585999999999999943e+01,-4.719999999999999751e+00,-7.151000000000000512e+01
5.625999999999999801e+01,-4.709999999999999964e+00,-7.137000000000000455e+01
5.656000000000000227e+01,-4.700000000000000178e+00,-7.123000000000000398e+01
5.674000000000000199e+01,-4.660000000000000142e+00,-7.112000000000000455e+01
5.671000000000000085e+01,-4.589999999999999858e+00,-7.118000000000000682e+01
5.657999999999999829e+01,-4.549999999999999822e+00,-7.123000000000000398e+01
5.632000000000000028e+01,-4.459999999999999964e+00,-7.134000000000000341e+01
5.589000000000000057e+01,-4.360000000000000320e+00,-7.153000000000000114e+01
5.542000000000000171e+01,-4.299999999999999822e+00,-7.173000000000000398e+01
5.495000000000000284e+01,-4.209999999999999964e+00,-7.193000000000000682e+01
5.446999999999999886e+01,-4.209999999999999964e+00,-7.212999999999999545e+01
5.407000000000000028e+01,-4.179999999999999716e+00,-7.231000000000000227e+01
5.371999999999999886e+01,-4.190000000000000391e+00,-7.248000000000000398e+01
5.353000000000000114e+01,-4.250000000000000000e+00,-7.251000000000000512e+01
5.339999999999999858e+01,-4.349999999999999645e+00,-7.259000000000000341e+01
5.346000000000000085e+01,-4.419999999999999929e+00,-7.259999999999999432e+01
5.361999999999999744e+01,-4.530000000000000249e+00,-7.254000000000000625e+01
5.390999999999999659e+01,-4.629999999999999893e+00,-7.243999999999999773e+01
5.435999999999999943e+01,-4.740000000000000213e+00,-7.231000000000000227e+01
5.481000000000000227e+01,-4.929999999999999716e+00,-7.215000000000000568e+01
5.528000000000000114e+01,-5.049999999999999822e+00,-7.195999999999999375e+01
5.572999999999999687e+01,-5.080000000000000071e+00,-7.178000000000000114e+01
5.613000000000000256e+01,-5.110000000000000320e+00,-7.160999999999999943e+01
5.646999999999999886e+01,-5.160000000000000142e+00,-7.146999999999999886e+01
5.672999999999999687e+01,-5.169999999999999929e+00,-7.132999999999999829e+01
5.684000000000000341e+01,-5.160000000000000142e+00,-7.129999999999999716e+01
5.689000000000000057e+01,-5.080000000000000071e+00,-7.128000000000000114e+01
5.682999999999999829e+01,-4.990000000000000213e+00,-7.131000000000000227e+01
5.667999999999999972e+01,-4.950000000000000178e+00,-7.139000000000000057e+01
5.639000000000000057e+01,-4.870000000000000107e+00,-7.154000000000000625e+01
5.603000000000000114e+01,-4.759999999999999787e+00,-7.168000000000000682e+01
5.570000000000000284e+01,-4.620000000000000107e+00,-7.181999999999999318e+01
5.535999999999999943e+01,-4.570000000000000284e+00,-7.195999999999999375e+01
5.506000000000000227e+01,-4.519999999999999574e+00,-7.212999999999999545e+01
5.482000000000000028e+01,-4.519999999999999574e+00,-7.225000000000000000e+01
5.467000000000000171e+01,-4.509999999999999787e+00,-7.232999999999999829e+01
5.459000000000000341e+01,-4.580000000000000071e+00,-7.239000000000000057e+01
5.459000000000000341e+01,-4.589999999999999858e+00,-7.239000000000000057e+01
5.465999999999999659e+01,-4.650000000000000355e+00,-7.234000000000000341e+01
5.481000000000000227e+01,-4.700000000000000178e+00,-7.229000000000000625e+01
5.510999999999999943e+01,-4.830000000000000071e+00,-7.218000000000000682e+01
5.545000000000000284e+01,-4.910000000000000142e+00,-7.207999999999999829e+01
5.578999999999999915e+01,-5.019999999999999574e+00,-7.193999999999999773e+01
5.610000000000000142e+01,-5.120000000000000107e+00,-7.181999999999999318e+01
5.639999999999999858e+01,-5.179999999999999716e+00,-7.170000000000000284e+01
5.665999999999999659e+01,-5.280000000000000249e+00,-7.156999999999999318e+01
5.685000000000000142e+01,-5.299999999999999822e+00,-7.151000000000000512e+01
5.696999999999999886e+01,-5.339999999999999858e+00,-7.146999999999999886e+01
5.700000000000000000e+01,-5.370000000000000107e+00,-7.145000000000000284e+01
5.696999999999999886e+01,-5.309999999999999609e+00,-7.148999999999999488e+01
5.682999999999999829e+01,-5.250000000000000000e+00,-7.154000000000000625e+01
5.660000000000000142e+01,-5.160000000000000142e+00,-7.164000000000000057e+01
5.624000000000000199e+01,-5.030000000000000249e+00,-7.182999999999999829e+01
5.600000000000000000e+01,-5.000000000000000000e+00,-7.190999999999999659e+01
5.575999999999999801e+01,-4.940000000000000391e+00,-7.204000000000000625e+01
5.552000000000000313e+01,-4.900000000000000355e+00,-7.214000000000000057e+01
5.532000000000000028e+01,-4.870000000000000107e+00,-7.223000000000000398e+01
5.518999999999999773e+01,-4.860000000000000320e+00,-7.223999999999999488e+01
5.513000000000000256e+01,-4.860000000000000320e+00,-7.229000000000000625e+01
5.511999999999999744e+01,-4.879999999999999893e+00,-7.231999999999999318e+01
5.521000000000000085e+01,-4.879999999999999893e+00,-7.226999999999999602e+01
5.528999999999999915e+01,-4.959999999999999964e+00,-7.223999999999999488e+01
5.546000000000000085e+01,-5.030000000000000249e+00,-7.217000000000000171e+01
5.564000000000000057e+01,-5.150000000000000355e+00,-7.207999999999999829e+01
5.586999999999999744e+01,-5.200000000000000178e+00,-7.196999999999999886e+01
5.607000000000000028e+01,-5.250000000000000000e+00,-7.192000000000000171e+01
5.625000000000000000e+01,-5.339999999999999858e+00,-7.184999999999999432e+01
5.642999999999999972e+01,-5.410000000000000142e+00,-7.176999999999999602e+01
5.656000000000000227e+01,-5.490000000000000213e+00,-7.173999999999999488e+01
5.667999999999999972e+01,-5.540000000000000036e+00,-7.167000000000000171e+01
5.675999999999999801e+01,-5.480000000000000426e+00,-7.164000000000000057e+01
5.675999999999999801e+01,-5.509999999999999787e+00,-7.164000000000000057e+01
5.675000000000000000e+01,-5.490000000000000213e+00,-7.165000000000000568e+01
5.667999999999999972e+01,-5.440000000000000391e+00,-7.167000000000000171e+01
5.650999999999999801e+01,-5.379999999999999893e+00,-7.173000000000000398e+01
5.636999999999999744e+01,-5.330000000000000071e+00,-7.179999999999999716e+01
5.615999999999999659e+01,-5.269999999999999574e+00,-7.193000000000000682e+01
5.600999999999999801e+01,-5.219999999999999751e+00,-7.195999999999999375e+01
5.584000000000000341e+01,-5.190000000000000391e+00,-7.201999999999999602e+01
5.567000000000000171e+01,-5.160000000000000142e+00,-7.212000000000000455e+01
5.560000000000000142e+01,-5.120000000000000107e+00,-7.217000000000000171e+01
5.559000000000000341e+01,-5.139999999999999680e+00,-7.215999999999999659e+01
5.567000000000000171e+01,-5.209999999999999964e+00,-7.210999999999999943e+01
5.577000000000000313e+01,-5.290000000000000036e+00,-7.207999999999999829e+01
5.600999999999999801e+01,-5.370000000000000107e+00,-7.198000000000000398e+01
5.618999999999999773e+01,-5.389999999999999680e+00,-7.190999999999999659e+01
5.635000000000000142e+01,-5.429999999999999716e+00,-7.185999999999999943e+01
5.657999999999999829e+01,-5.500000000000000000e+00,-7.173999999999999488e+01
5.668999999999999773e+01,-5.519999999999999574e+00,-7.170999999999999375e+01
5.675000000000000000e+01,-5.519999999999999574e+00,-7.168999999999999773e+01
5.674000000000000199e+01,-5.540000000000000036e+00,-7.168999999999999773e+01
5.667999999999999972e+01,-5.549999999999999822e+00,-7.170999999999999375e+01
5.657999999999999829e+01,-5.549999999999999822e+00,-7.173999999999999488e+01
5.640999999999999659e+01,-5.500000000000000000e+00,-7.181999999999999318e+01
5.624000000000000199e+01,-5.469999999999999751e+00,-7.193999999999999773e+01
5.596000000000000085e+01,-5.389999999999999680e+00,-7.204000000000000625e+01
5.589999999999999858e+01,-5.339999999999999858e+00,-7.204999999999999716e+01
5.589999999999999858e+01,-5.330000000000000071e+00,-7.204999999999999716e+01
5.592000000000000171e+01,-5.290000000000000036e+00,-7.206999999999999318e+01
5.596000000000000085e+01,-5.280000000000000249e+00,-7.206000000000000227e+01
5.603999999999999915e+01,-5.299999999999999822e+00,-7.200000000000000000e+01
5.621000000000000085e+01,-5.389999999999999680e+00,-7.190999999999999659e+01
5.632999999999999829e+01,-5.429999999999999716e+00,-7.187000000000000455e+01
5.646000000000000085e+01,-5.490000000000000213e+00,-7.182999999999999829e+01
5.653999999999999915e+01,-5.519999999999999574e+00,-7.179999999999999716e+01
5.664000000000000057e+01,-5.589999999999999858e+00,-7.176999999999999602e+01
5.668999999999999773e+01,-5.620000000000000107e+00,-7.173000000000000398e+01
5.671000000000000085e+01,-5.650000000000000355e+00,-7.171999999999999886e+01
5.671000000000000085e+01,-5.660000000000000142e+00,-7.171999999999999886e+01
5.668999999999999773e+01,-5.679999999999999716e+00,-7.173999999999999488e+01
5.664000000000000057e+01,-5.650000000000000355e+00,-7.176000000000000512e+01
5.654999999999999716e+01,-5.610000000000000320e+00,-7.179999999999999716e+01
5.650000000000000000e+01,-5.540000000000000036e+00,-7.181999999999999318e+01
5.639999999999999858e+01,-5.490000000000000213e+00,-7.185999999999999943e+01
5.629999999999999716e+01,-5.500000000000000000e+00,-7.190999999999999659e+01
5.622999999999999687e+01,-5.440000000000000391e+00,-7.193000000000000682e+01
5.620000000000000284e+01,-5.400000000000000355e+00,-7.198000000000000398e+01
5.617999999999999972e+01,-5.410000000000000142e+00,-7.198000000000000398e+01
5.617999999999999972e+01,-5.419999999999999929e+00,-7.196999999999999886e+01
5.620000000000000284e+01,-5.440000000000000391e+00,-7.195999999999999375e+01
5.625000000000000000e+01,-5.459999999999999964e+00,-7.195000000000000284e+01
5.642000000000000171e+01,-5.509999999999999787e+00,-7.189000000000000057e+01
5.650000000000000000e+01,-5.580000000000000071e+00,-7.185999999999999943e+01
5.660999999999999943e+01,-5.620000000000000107e+00,-7.176999999999999602e+01
5.671999999999999886e+01,-5.639999999999999680e+00,-7.171999999999999886e+01
5.681000000000000227e+01,-5.690000000000000391e+00,-7.170999999999999375e+01
5.692999999999999972e+01,-5.719999999999999751e+00,-7.165999999999999659e+01
5.695000000000000284e+01,-5.730000000000000426e+00,-7.165999999999999659e+01
5.690999999999999659e+01,-5.719999999999999751e+00,-7.167000000000000171e+01
5.685999999999999943e+01,-5.690000000000000391e+00,-7.168000000000000682e+01
5.674000000000000199e+01,-5.650000000000000355e+00,-7.173999999999999488e+01
5.660999999999999943e+01,-5.610000000000000320e+00,-7.181000000000000227e+01
5.649000000000000199e+01,-5.610000000000000320e+00,-7.182999999999999829e+01
5.639999999999999858e+01,-5.599999999999999645e+00,-7.189000000000000057e+01
5.635999999999999943e+01,-5.559999999999999609e+00,-7.193999999999999773e+01
5.634000000000000341e+01,-5.580000000000000071e+00,-7.193000000000000682e+01
5.634000000000000341e+01,-5.570000000000000284e+00,-7.193000000000000682e+01
5.635000000000000142e+01,-5.589999999999999858e+00,-7.193000000000000682e+01
5.640999999999999659e+01,-5.599999999999999645e+00,-7.190000000000000568e+01
5.650000000000000000e+01,-5.669999999999999929e+00,-7.187999999999999545e+01
5.664000000000000057e+01,-5.629999999999999893e+00,-7.182999999999999829e+01
5.678000000000000114e+01,-5.679999999999999716e+00,-7.173999999999999488e+01
5.696000000000000085e+01,-5.759999999999999787e+00,-7.165999999999999659e+01
5.704999999999999716e+01,-5.790000000000000036e+00,-7.165999999999999659e+01
5.709000000000000341e+01,-5.809999999999999609e+00,-7.164000000000000057e+01
5.707000000000000028e+01,-5.799999999999999822e+00,-7.164000000000000057e+01
5.703999999999999915e+01,-5.790000000000000036e+00,-7.167000000000000171e+01
5.697999999999999687e+01,-5.759999999999999787e+00,-7.170000000000000284e+01
5.690999999999999659e+01,-5.700000000000000178e+00,-7.175000000000000000e+01
5.686999999999999744e+01,-5.650000000000000355e+00,-7.176999999999999602e+01
5.684000000000000341e+01,-5.650000000000000355e+00,-7.176000000000000512e+01
5.681000000000000227e+01,-5.589999999999999858e+00,-7.179999999999999716e+01
5.678000000000000114e+01,-5.570000000000000284e+00,-7.182999999999999829e+01
5.678000000000000114e+01,-5.570000000000000284e+00,-7.181000000000000227e+01
5.675999999999999801e+01,-5.580000000000000071e+00,-7.182999999999999829e+01
5.678000000000000114e+01,-5.599999999999999645e+00,-7.182999999999999829e+01
5.682999999999999829e+01,-5.599999999999999645e+00,-7.179999999999999716e+01
5.692000000000000171e+01,-5.580000000000000071e+00,-7.178000000000000114e+01
5.702000000000000313e+01,-5.580000000000000071e+00,-7.171999999999999886e+01
5.711999999999999744e+01,-5.629999999999999893e+00,-7.168000000000000682e+01
5.717000000000000171e+01,-5.660000000000000142e+00,-7.165000000000000568e+01
5.718999999999999773e+01,-5.719999999999999751e+00,-7.164000000000000057e+01
5.720000000000000284e+01,-5.719999999999999751e+00,-7.164000000000000057e+01
5.721000000000000085e+01,-5.750000000000000000e+00,-7.162000000000000455e+01
5.720000000000000284e+01,-5.780000000000000249e+00,-7.164000000000000057e+01
5.717999999999999972e+01,-5.780000000000000249e+00,-7.165000000000000568e+01
5.714000000000000057e+01,-5.769999999999999574e+00,-7.165000000000000568e+01
5.710999999999999943e+01,-5.750000000000000000e+00,-7.167000000000000171e+01
5.710000000000000142e+01,-5.750000000000000000e+00,-7.168999999999999773e+01
5.707999999999999829e+01,-5.730000000000000426e+00,-7.170000000000000284e+01
5.699000000000000199e+01,-5.730000000000000426e+00,-7.173000000000000398e+01
5.696000000000000085e+01,-5.719999999999999751e+00,-7.175000000000000000e+01
5.699000000000000199e+01,-5.709999999999999964e+00,-7.173999999999999488e+01
5.703000000000000114e+01,-5.700000000000000178e+00,-7.173999999999999488e+01
5.707999999999999829e+01,-5.679999999999999716e+00,-7.170999999999999375e+01
5.714000000000000057e+01,-5.639999999999999680e+00,-7.167000000000000171e+01
5.721999999999999886e+01,-5.639999999999999680e+00,-7.162999999999999545e+01
5.728000000000000114e+01,-5.639999999999999680e+00,-7.164000000000000057e+01
5.732000000000000028e+01,-5.639999999999999680e+00,-7.162000000000000455e+01
5.732999999999999829e+01,-5.660000000000000142e+00,-7.162000000000000455e+01
5.735000000000000142e+01,-5.679999999999999716e+00,-7.159999999999999432e+01
5.736999999999999744e+01,-5.700000000000000178e+00,-7.162000000000000455e+01
5.740999999999999659e+01,-5.709999999999999964e+00,-7.159000000000000341e+01
5.743999999999999773e+01,-5.719999999999999751e+00,-7.159999999999999432e+01
5.750000000000000000e+01,-5.799999999999999822e+00,-7.156000000000000227e+01
5.750999999999999801e+01,-5.830000000000000071e+00,-7.159000000000000341e+01
5.750999999999999801e+01,-5.830000000000000071e+00,-7.159999999999999432e+01
5.747999999999999687e+01,-5.870000000000000107e+00,-7.159000000000000341e+01
5.750000000000000000e+01,-5.870000000000000107e+00,-7.159999999999999432e+01
5.752000000000000313e+01,-5.870000000000000107e+00,-7.159000000000000341e+01
5.757000000000000028e+01,-5.879999999999999893e+00,-7.157999999999999829e+01
5.760000000000000142e+01,-5.910000000000000142e+00,-7.154999999999999716e+01
5.765999999999999659e+01,-5.929999999999999716e+00,-7.151000000000000512e+01
5.771000000000000085e+01,-5.919999999999999929e+00,-7.151000000000000512e+01
5.771999999999999886e+01,-5.950000000000000178e+00,-7.150000000000000000e+01
5.771999999999999886e+01,-5.959999999999999964e+00,-7.148999999999999488e+01
5.771000000000000085e+01,-5.980000000000000426e+00,-7.151000000000000512e+01
5.775000000000000000e+01,-6.049999999999999822e+00,-7.148000000000000398e+01
5.775000000000000000e+01,-6.080000000000000071e+00,-7.148999999999999488e+01
5.777000000000000313e+01,-6.089999999999999858e+00,-7.146999999999999886e+01
5.775999999999999801e+01,-6.099999999999999645e+00,-7.148000000000000398e+01
5.775999999999999801e+01,-6.080000000000000071e+00,-7.148000000000000398e+01
5.774000000000000199e+01,-6.070000000000000284e+00,-7.148999999999999488e+01
5.772999999999999687e+01,-6.030000000000000249e+00,-7.148999999999999488e+01
5.768999999999999773e+01,-6.019999999999999574e+00,-7.151999999999999602e+01
5.767999999999999972e+01,-6.000000000000000000e+00,-7.151999999999999602e+01
5.771000000000000085e+01,-5.940000000000000391e+00,-7.151000000000000512e+01
5.772999999999999687e+01,-5.929999999999999716e+00,-7.151000000000000512e+01
5.782999999999999829e+01,-5.879999999999999893e+00,-7.145999999999999375e+01
5.793999999999999773e+01,-5.839999999999999858e+00,-7.139000000000000057e+01
5.803000000000000114e+01,-5.839999999999999858e+00,-7.134999999999999432e+01
5.814999999999999858e+01,-5.809999999999999609e+00,-7.128000000000000114e+01
5.821999999999999886e+01,-5.790000000000000036e+00,-7.128000000000000114e+01
5.832000000000000028e+01,-5.830000000000000071e+00,-7.117000000000000171e+01
5.835999999999999943e+01,-5.839999999999999858e+00,-7.115000000000000568e+01
5.839999999999999858e+01,-5.860000000000000320e+00,-7.110999999999999943e+01
5.842000000000000171e+01,-5.830000000000000071e+00,-7.109000000000000341e+01
5.843999999999999773e+01,-5.849999999999999645e+00,-7.106999999999999318e+01
5.842000000000000171e+01,-5.870000000000000107e+00,-7.106000000000000227e+01
5.836999999999999744e+01,-5.860000000000000320e+00,-7.106000000000000227e+01
5.832000000000000028e+01,-5.870000000000000107e+00,-7.106999999999999318e+01
5.820000000000000284e+01,-5.900000000000000355e+00,-7.112999999999999545e+01
5.810999999999999943e+01,-5.849999999999999645e+00,-7.114000000000000057e+01
5.799000000000000199e+01,-5.870000000000000107e+00,-7.117000000000000171e+01
5.786999999999999744e+01,-5.839999999999999858e+00,-7.118999999999999773e+01
5.779999999999999716e+01,-5.839999999999999858e+00,-7.123999999999999488e+01
5.778000000000000114e+01,-5.830000000000000071e+00,-7.126999999999999602e+01
5.778999999999999915e+01,-5.809999999999999609e+00,-7.123000000000000398e+01
5.785999999999999943e+01,-5.780000000000000249e+00,-7.114000000000000057e+01
5.806000000000000227e+01,-5.709999999999999964e+00,-7.107999999999999829e+01
5.820000000000000284e+01,-5.709999999999999964e+00,-7.098999999999999488e+01
5.828999999999999915e+01,-5.719999999999999751e+00,-7.093999999999999773e+01
5.840999999999999659e+01,-5.700000000000000178e+00,-7.087999999999999545e+01
5.850000000000000000e+01,-5.690000000000000391e+00,-7.082999999999999829e+01
5.850999999999999801e+01,-5.730000000000000426e+00,-7.079000000000000625e+01
5.850000000000000000e+01,-5.700000000000000178e+00,-7.079000000000000625e+01
5.846000000000000085e+01,-5.709999999999999964e+00,-7.079000000000000625e+01
5.835999999999999943e+01,-5.740000000000000213e+00,-7.084000000000000341e+01
5.825000000000000000e+01,-5.750000000000000000e+00,-7.089000000000000057e+01
5.813000000000000256e+01,-5.750000000000000000e+00,-7.093999999999999773e+01
5.795000000000000284e+01,-5.730000000000000426e+00,-7.101999999999999602e+01
5.785000000000000142e+01,-5.759999999999999787e+00,-7.103000000000000114e+01
5.784000000000000341e+01,-5.740000000000000213e+00,-7.101999999999999602e+01
5.781000000000000227e+01,-5.750000000000000000e+00,-7.103000000000000114e+01
5.784000000000000341e+01,-5.719999999999999751e+00,-7.101999999999999602e+01
5.788000000000000256e+01,-5.690000000000000391e+00,-7.103000000000000114e+01
5.796000000000000085e+01,-5.669999999999999929e+00,-7.096999999999999886e+01
5.804999999999999716e+01,-5.690000000000000391e+00,-7.089000000000000057e+01
5.817000000000000171e+01,-5.639999999999999680e+00,-7.081999999999999318e+01
5.825999999999999801e+01,-5.589999999999999858e+00,-7.079000000000000625e+01
5.831000000000000227e+01,-5.540000000000000036e+00,-7.073999999999999488e+01
5.834000000000000341e+01,-5.490000000000000213e+00,-7.071999999999999886e+01
5.840999999999999659e+01,-5.480000000000000426e+00,-7.065999999999999659e+01
5.845000000000000284e+01,-5.429999999999999716e+00,-7.065999999999999659e+01
5.850000000000000000e+01,-5.309999999999999609e+00,-7.059999999999999432e+01
5.849000000000000199e+01,-5.230000000000000426e+00,-7.060999999999999943e+01
5.847999999999999687e+01,-5.150000000000000355e+00,-7.060999999999999943e+01
5.845000000000000284e+01,-5.120000000000000107e+00,-7.060999999999999943e+01
5.843999999999999773e+01,-5.080000000000000071e+00,-7.059000000000000341e+01
5.835999999999999943e+01,-5.070000000000000284e+00,-7.060999999999999943e+01
5.829999999999999716e+01,-5.040000000000000036e+00,-7.064000000000000057e+01
5.817999999999999972e+01,-5.049999999999999822e+00,-7.068000000000000682e+01
5.809000000000000341e+01,-5.080000000000000071e+00,-7.070999999999999375e+01
5.799000000000000199e+01,-5.099999999999999645e+00,-7.070999999999999375e+01
5.790999999999999659e+01,-5.209999999999999964e+00,-7.070999999999999375e+01
5.786999999999999744e+01,-5.230000000000000426e+00,-7.076000000000000512e+01
5.785999999999999943e+01,-5.250000000000000000e+00,-7.079000000000000625e+01
5.785000000000000142e+01,-5.299999999999999822e+00,-7.078000000000000114e+01
5.782000000000000028e+01,-5.360000000000000320e+00,-7.079000000000000625e+01
5.781000000000000227e+01,-5.400000000000000355e+00,-7.075000000000000000e+01
5.785000000000000142e+01,-5.389999999999999680e+00,-7.073000000000000398e+01
5.788000000000000256e+01,-5.410000000000000142e+00,-7.071999999999999886e+01
5.800000000000000000e+01,-5.360000000000000320e+00,-7.060999999999999943e+01
5.811999999999999744e+01,-5.330000000000000071e+00,-7.054999999999999716e+01
5.821999999999999886e+01,-5.259999999999999787e+00,-7.054999999999999716e+01
5.835000000000000142e+01,-5.200000000000000178e+00,-7.045999999999999375e+01
5.838000000000000256e+01,-5.160000000000000142e+00,-7.040000000000000568e+01
5.842000000000000171e+01,-5.089999999999999858e+00,-7.040999999999999659e+01
5.845000000000000284e+01,-5.070000000000000284e+00,-7.037999999999999545e+01
5.842999999999999972e+01,-5.019999999999999574e+00,-7.040000000000000568e+01
5.839000000000000057e+01,-4.980000000000000426e+00,-7.040000000000000568e+01
5.832000000000000028e+01,-4.969999999999999751e+00,-7.039000000000000057e+01
5.821999999999999886e+01,-4.969999999999999751e+00,-7.042000000000000171e+01
5.814999999999999858e+01,-4.990000000000000213e+00,-7.043999999999999773e+01
5.803999999999999915e+01,-5.070000000000000284e+00,-7.048000000000000398e+01
5.795000000000000284e+01,-5.080000000000000071e+00,-7.051999999999999602e+01
5.785999999999999943e+01,-5.099999999999999645e+00,-7.056000000000000227e+01
5.778000000000000114e+01,-5.139999999999999680e+00,-7.059000000000000341e+01
5.775999999999999801e+01,-5.209999999999999964e+00,-7.059999999999999432e+01
5.775999999999999801e+01,-5.259999999999999787e+00,-7.057999999999999829e+01
5.778000000000000114e+01,-5.250000000000000000e+00,-7.054000000000000625e+01
5.782999999999999829e+01,-5.259999999999999787e+00,-7.051999999999999602e+01
5.790999999999999659e+01,-5.269999999999999574e+00,-7.048000000000000398e+01
5.806000000000000227e+01,-5.230000000000000426e+00,-7.043000000000000682e+01
5.814000000000000057e+01,-5.209999999999999964e+00,-7.037999999999999545e+01
5.824000000000000199e+01,-5.190000000000000391e+00,-7.028000000000000114e+01
5.828999999999999915e+01,-5.139999999999999680e+00,-7.028000000000000114e+01
5.838000000000000256e+01,-5.070000000000000284e+00,-7.023000000000000398e+01
5.838000000000000256e+01,-5.059999999999999609e+00,-7.023000000000000398e+01
5.835999999999999943e+01,-5.009999999999999787e+00,-7.020000000000000284e+01
5.827000000000000313e+01,-4.969999999999999751e+00,-7.020000000000000284e+01
5.818999999999999773e+01,-4.929999999999999716e+00,-7.023000000000000398e+01
5.807000000000000028e+01,-4.950000000000000178e+00,-7.029999999999999716e+01
5.795000000000000284e+01,-4.959999999999999964e+00,-7.035999999999999943e+01
5.786999999999999744e+01,-4.980000000000000426e+00,-7.037000000000000455e+01
5.779999999999999716e+01,-4.990000000000000213e+00,-7.040999999999999659e+01
5.778000000000000114e+01,-5.030000000000000249e+00,-7.040999999999999659e+01
5.777000000000000313e+01,-5.059999999999999609e+00,-7.042000000000000171e+01
5.775999999999999801e+01,-5.089999999999999858e+00,-7.042000000000000171e+01
5.775000000000000000e+01,-5.120000000000000107e+00,-7.040000000000000568e+01
5.774000000000000199e+01,-5.150000000000000355e+00,-7.035999999999999943e+01
5.777000000000000313e+01,-5.160000000000000142e+00,-7.034999999999999432e+01
5.784000000000000341e+01,-5.169999999999999929e+00,-7.031999999999999318e+01
5.795000000000000284e+01,-5.209999999999999964e+00,-7.026999999999999602e+01
5.800000000000000000e+01,-5.150000000000000355e+00,-7.026000000000000512e+01
5.806000000000000227e+01,-5.110000000000000320e+00,-7.018999999999999773e+01
5.810999999999999943e+01,-5.080000000000000071e+00,-7.018000000000000682e+01
5.817000000000000171e+01,-5.059999999999999609e+00,-7.018000000000000682e+01
5.821999999999999886e+01,-5.049999999999999822e+00,-7.012999999999999545e+01
5.821000000000000085e+01,-5.009999999999999787e+00,-7.012999999999999545e+01
5.818999999999999773e+01,-4.990000000000000213e+00,-7.009999999999999432e+01
5.815999999999999659e+01,-4.950000000000000178e+00,-7.012999999999999545e+01
5.811999999999999744e+01,-4.919999999999999929e+00,-7.015999999999999659e+01
5.806000000000000227e+01,-4.940000000000000391e+00,-7.015999999999999659e+01
5.792000000000000171e+01,-4.990000000000000213e+00,-7.017000000000000171e+01
5.786999999999999744e+01,-4.969999999999999751e+00,-7.018999999999999773e+01
5.784000000000000341e+01,-5.019999999999999574e+00,-7.020000000000000284e+01
5.781000000000000227e+01,-5.040000000000000036e+00,-7.023000000000000398e+01
5.774000000000000199e+01,-5.080000000000000071e+00,-7.026999999999999602e+01
5.771000000000000085e+01,-5.099999999999999645e+00,-7.023999999999999488e+01
5.770000000000000284e+01,-5.120000000000000107e+00,-7.023000000000000398e+01
5.771000000000000085e+01,-5.219999999999999751e+00,-7.026999999999999602e+01
5.774000000000000199e+01,-5.200000000000000178e+00,-7.026000000000000512e+01
5.775000000000000000e+01,-5.219999999999999751e+00,-7.021999999999999886e+01
5.778000000000000114e+01,-5.230000000000000426e+00,-7.020999999999999375e+01
5.781000000000000227e+01,-5.240000000000000213e+00,-7.020999999999999375e+01
5.785000000000000142e+01,-5.240000000000000213e+00,-7.017000000000000171e+01
5.785000000000000142e+01,-5.209999999999999964e+00,-7.017000000000000171e+01
5.788000000000000256e+01,-5.209999999999999964e+00,-7.012000000000000455e+01
5.789000000000000057e+01,-5.190000000000000391e+00,-7.010999999999999943e+01
5.789999999999999858e+01,-5.160000000000000142e+00,-7.007999999999999829e+01
5.790999999999999659e+01,-5.160000000000000142e+00,-7.007999999999999829e+01
5.790999999999999659e+01,-5.129999999999999893e+00,-7.006999999999999318e+01
5.786999999999999744e+01,-5.110000000000000320e+00,-7.009000000000000341e+01
5.782000000000000028e+01,-5.089999999999999858e+00,-7.009000000000000341e+01
5.778000000000000114e+01,-5.089999999999999858e+00,-7.012000000000000455e+01
5.771000000000000085e+01,-5.089999999999999858e+00,-7.015999999999999659e+01
5.760999999999999943e+01,-5.129999999999999893e+00,-7.017000000000000171e+01
5.753999999999999915e+01,-5.080000000000000071e+00,-7.020000000000000284e+01
5.752000000000000313e+01,-5.110000000000000320e+00,-7.023000000000000398e+01
5.750999999999999801e+01,-5.150000000000000355e+00,-7.023999999999999488e+01
5.752000000000000313e+01,-5.179999999999999716e+00,-7.023999999999999488e+01
5.753000000000000114e+01,-5.179999999999999716e+00,-7.020000000000000284e+01
5.757000000000000028e+01,-5.200000000000000178e+00,-7.014000000000000057e+01
5.764000000000000057e+01,-5.190000000000000391e+00,-7.012999999999999545e+01
5.767000000000000171e+01,-5.169999999999999929e+00,-7.009999999999999432e+01
5.764999999999999858e+01,-5.179999999999999716e+00,-7.009000000000000341e+01
5.763000000000000256e+01,-5.179999999999999716e+00,-7.006999999999999318e+01
5.764000000000000057e+01,-5.160000000000000142e+00,-7.006999999999999318e+01
5.764999999999999858e+01,-5.139999999999999680e+00,-7.009999999999999432e+01
5.765999999999999659e+01,-5.139999999999999680e+00,-7.009000000000000341e+01
5.765999999999999659e+01,-5.120000000000000107e+00,-7.006999999999999318e+01
5.768999999999999773e+01,-5.089999999999999858e+00,-7.004999999999999716e+01
5.774000000000000199e+01,-5.070000000000000284e+00,-7.003000000000000114e+01
5.775999999999999801e+01,-5.070000000000000284e+00,-7.004000000000000625e+01
5.772999999999999687e+01,-5.059999999999999609e+00,-7.003000000000000114e+01
5.768999999999999773e+01,-5.059999999999999609e+00,-7.003000000000000114e+01
5.768999999999999773e+01,-5.049999999999999822e+00,-7.004000000000000625e+01
5.767999999999999972e+01,-5.070000000000000284e+00,-7.004999999999999716e+01
5.760000000000000142e+01,-5.089999999999999858e+00,-7.009000000000000341e+01
5.756000000000000227e+01,-5.110000000000000320e+00,-7.006999999999999318e+01
5.754999999999999716e+01,-5.150000000000000355e+00,-7.009000000000000341e+01
5.754999999999999716e+01,-5.160000000000000142e+00,-7.009999999999999432e+01
5.754999999999999716e+01,-5.169999999999999929e+00,-7.009000000000000341e+01
5.750999999999999801e+01,-5.150000000000000355e+00,-7.009999999999999432e+01
5.750999999999999801e+01,-5.160000000000000142e+00,-7.009999999999999432e+01
5.750999999999999801e+01,-5.179999999999999716e+00,-7.009999999999999432e+01
5.753999999999999915e+01,-5.160000000000000142e+00,-7.009000000000000341e+01
5.760000000000000142e+01,-5.120000000000000107e+00,-7.004999999999999716e+01
5.765999999999999659e+01,-5.110000000000000320e+00,-7.000000000000000000e+01
5.771999999999999886e+01,-5.099999999999999645e+00,-6.993999999999999773e+01
5.774000000000000199e+01,-5.080000000000000071e+00,-6.993000000000000682e+01
5.775999999999999801e+01,-5.059999999999999609e+00,-6.992000000000000171e+01
5.775000000000000000e+01,-5.030000000000000249e+00,-6.992000000000000171e+01
5.772999999999999687e+01,-5.030000000000000249e+00,-6.993000000000000682e+01
5.761999999999999744e+01,-5.059999999999999609e+00,-6.996999999999999886e+01
5.752000000000000313e+01,-5.040000000000000036e+00,-7.000000000000000000e+01
5.746999999999999886e+01,-5.019999999999999574e+00,-7.004000000000000625e+01
5.738000000000000256e+01,-5.080000000000000071e+00,-7.010999999999999943e+01
5.731000000000000227e+01,-5.099999999999999645e+00,-7.012000000000000455e+01
5.727000000000000313e+01,-5.120000000000000107e+00,-7.012000000000000455e+01
5.728999999999999915e+01,-5.099999999999999645e+00,-7.009000000000000341e+01
5.732000000000000028e+01,-5.150000000000000355e+00,-7.010999999999999943e+01
5.738000000000000256e+01,-5.160000000000000142e+00,-7.006000000000000227e+01
5.742999999999999972e+01,-5.160000000000000142e+00,-7.003000000000000114e+01
5.749000000000000199e+01,-5.169999999999999929e+00,-6.998999999999999488e+01
5.754999999999999716e+01,-5.160000000000000142e+00,-7.001000000000000512e+01
5.759000000000000341e+01,-5.139999999999999680e+00,-7.000000000000000000e+01
5.760000000000000142e+01,-5.110000000000000320e+00,-6.995000000000000284e+01
5.759000000000000341e+01,-5.129999999999999893e+00,-6.993999999999999773e+01
5.757999999999999829e+01,-5.120000000000000107e+00,-6.995999999999999375e+01
5.757000000000000028e+01,-5.089999999999999858e+00,-6.996999999999999886e+01
5.750000000000000000e+01,-5.070000000000000284e+00,-6.998999999999999488e+01
5.740999999999999659e+01,-5.080000000000000071e+00,-7.001000000000000512e+01
5.734000000000000341e+01,-5.059999999999999609e+00,-7.006000000000000227e+01
5.732000000000000028e+01,-5.049999999999999822e+00,-7.007999999999999829e+01
5.727000000000000313e+01,-5.059999999999999609e+00,-7.009999999999999432e+01
5.725000000000000000e+01,-5.089999999999999858e+00,-7.009000000000000341e+01
5.725999999999999801e+01,-5.080000000000000071e+00,-7.009000000000000341e+01
5.728000000000000114e+01,-5.089999999999999858e+00,-7.006000000000000227e+01
5.729999999999999716e+01,-5.110000000000000320e+00,-7.004999999999999716e+01
5.732000000000000028e+01,-5.099999999999999645e+00,-7.006000000000000227e+01
5.738000000000000256e+01,-5.139999999999999680e+00,-7.000000000000000000e+01
5.739000000000000057e+01,-5.139999999999999680e+00,-6.998999999999999488e+01
5.739000000000000057e+01,-5.099999999999999645e+00,-6.996999999999999886e+01
5.736999999999999744e+01,-5.110000000000000320e+00,-6.998000000000000398e+01
5.734000000000000341e+01,-5.110000000000000320e+00,-7.000000000000000000e+01
5.732999999999999829e+01,-5.099999999999999645e+00,-7.000000000000000000e+01
5.728999999999999915e+01,-5.040000000000000036e+00,-7.001000000000000512e+01
5.724000000000000199e+01,-5.049999999999999822e+00,-7.001999999999999602e+01
5.718999999999999773e+01,-5.040000000000000036e+00,-7.004000000000000625e+01
5.714999999999999858e+01,-5.040000000000000036e+00,-7.006000000000000227e+01
5.713000000000000256e+01,-5.049999999999999822e+00,-7.006999999999999318e+01
5.713000000000000256e+01,-5.019999999999999574e+00,-7.007999999999999829e+01
5.714000000000000057e+01,-5.059999999999999609e+00,-7.006000000000000227e+01
5.715999999999999659e+01,-5.049999999999999822e+00,-7.006000000000000227e+01
5.720000000000000284e+01,-5.070000000000000284e+00,-7.003000000000000114e+01
5.724000000000000199e+01,-5.070000000000000284e+00,-7.001000000000000512e+01
5.725999999999999801e+01,-5.080000000000000071e+00,-7.000000000000000000e+01
5.725999999999999801e+01,-5.089999999999999858e+00,-7.001999999999999602e+01
5.728000000000000114e+01,-5.099999999999999645e+00,-6.998999999999999488e+01
5.729999999999999716e+01,-5.110000000000000320e+00,-6.998000000000000398e+01
5.728999999999999915e+01,-5.120000000000000107e+00,-6.998999999999999488e+01
5.728000000000000114e+01,-5.110000000000000320e+00,-6.998999999999999488e+01
5.725999999999999801e+01,-5.089999999999999858e+00,-7.000000000000000000e+01
5.721000000000000085e+01,-5.080000000000000071e+00,-7.004000000000000625e+01
5.720000000000000284e+01,-5.049999999999999822e+00,-7.004999999999999716e+01
5.717000000000000171e+01,-5.049999999999999822e+00,-7.004999999999999716e+01
5.714999999999999858e+01,-5.049999999999999822e+00,-7.004000000000000625e+01
5.715999999999999659e+01,-5.049999999999999822e+00,-7.003000000000000114e+01
5.717000000000000171e+01,-5.049999999999999822e+00,-7.003000000000000114e+01
5.717999999999999972e+01,-5.049999999999999822e+00,-7.001999999999999602e+01
5.717000000000000171e+01,-5.049999999999999822e+00,-7.001000000000000512e+01
5.717000000000000171e+01,-5.049999999999999822e+00,-7.001999999999999602e+01
5.721000000000000085e+01,-5.080000000000000071e+00,-7.001999999999999602e+01
5.721999999999999886e+01,-5.080000000000000071e+00,-7.001999999999999602e+01
5.721999999999999886e+01,-5.099999999999999645e+00,-7.000000000000000000e+01
5.725000000000000000e+01,-5.089999999999999858e+00,-6.998000000000000398e+01
5.728000000000000114e+01,-5.099999999999999645e+00,-6.996999999999999886e+01
5.728999999999999915e+01,-5.129999999999999893e+00,-6.996999999999999886e+01
5.729999999999999716e+01,-5.110000000000000320e+00,-6.996999999999999886e+01
5.729999999999999716e+01,-5.099999999999999645e+00,-6.995999999999999375e+01
5.729999999999999716e+01,-5.089999999999999858e+00,-6.995000000000000284e+01
5.728999999999999915e+01,-5.099999999999999645e+00,-6.995000000000000284e+01
5.727000000000000313e+01,-5.059999999999999609e+00,-6.996999999999999886e+01
5.724000000000000199e+01,-5.059999999999999609e+00,-6.998000000000000398e+01
5.721999999999999886e+01,-5.070000000000000284e+00,-6.998000000000000398e+01
5.717999999999999972e+01,-5.040000000000000036e+00,-7.001000000000000512e+01
5.713000000000000256e+01,-5.049999999999999822e+00,-7.001000000000000512e+01
5.711999999999999744e+01,-5.030000000000000249e+00,-7.001000000000000512e+01
5.711999999999999744e+01,-5.040000000000000036e+00,-7.001999999999999602e+01
5.713000000000000256e+01,-5.059999999999999609e+00,-7.004000000000000625e+01
5.714000000000000057e+01,-5.059999999999999609e+00,-7.001999999999999602e+01
5.714999999999999858e+01,-5.080000000000000071e+00,-7.001000000000000512e+01
5.717000000000000171e+01,-5.080000000000000071e+00,-6.998999999999999488e+01
5.721000000000000085e+01,-5.099999999999999645e+00,-6.998000000000000398e+01
5.722999999999999687e+01,-5.110000000000000320e+00,-6.998000000000000398e+01
5.725999999999999801e+01,-5.089999999999999858e+00,-6.998000000000000398e+01
5.728000000000000114e+01,-5.120000000000000107e+00,-6.995000000000000284e+01
5.725999999999999801e+01,-5.110000000000000320e+00,-6.995999999999999375e+01
5.724000000000000199e+01,-5.080000000000000071e+00,-6.996999999999999886e+01
5.721000000000000085e+01,-5.080000000000000071e+00,-6.998999999999999488e+01
5.717000000000000171e+01,-5.089999999999999858e+00,-7.000000000000000000e+01
5.711999999999999744e+01,-5.080000000000000071e+00,-7.001999999999999602e+01
5.709000000000000341e+01,-5.059999999999999609e+00,-7.004999999999999716e+01
5.706000000000000227e+01,-5.059999999999999609e+00,-7.004999999999999716e+01
5.703999999999999915e+01,-5.030000000000000249e+00,-7.004999999999999716e+01
5.702000000000000313e+01,-5.049999999999999822e+00,-7.004999999999999716e+01
5.702000000000000313e+01,-5.049999999999999822e+00,-7.006999999999999318e+01
5.702000000000000313e+01,-5.070000000000000284e+00,-7.006999999999999318e+01
5.707999999999999829e+01,-5.059999999999999609e+00,-7.003000000000000114e+01
5.713000000000000256e+01,-5.080000000000000071e+00,-7.001999999999999602e+01
5.715999999999999659e+01,-5.080000000000000071e+00,-6.998000000000000398e+01
5.717999999999999972e+01,-5.070000000000000284e+00,-6.995999999999999375e+01
5.721000000000000085e+01,-5.089999999999999858e+00,-6.995999999999999375e+01
5.724000000000000199e+01,-5.080000000000000071e+00,-6.996999999999999886e+01
5.722999999999999687e+01,-5.099999999999999645e+00,-6.996999999999999886e+01
5.721000000000000085e+01,-5.089999999999999858e+00,-6.995999999999999375e+01
5.721000000000000085e+01,-5.080000000000000071e+00,-6.995999999999999375e+01
5.720000000000000284e+01,-5.080000000000000071e+00,-6.998999999999999488e+01
5.717000000000000171e+01,-5.080000000000000071e+00,-6.998000000000000398e+01
5.714000000000000057e+01,-5.059999999999999609e+00,-6.998000000000000398e+01
5.707000000000000028e+01,-5.049999999999999822e+00,-7.001999999999999602e+01
5.700000000000000000e+01,-5.040000000000000036e+00,-7.004999999999999716e+01
5.696000000000000085e+01,-5.049999999999999822e+00,-7.004000000000000625e+01
5.689999999999999858e+01,-5.059999999999999609e+00,-7.006999999999999318e+01
5.692000000000000171e+01,-5.070000000000000284e+00,-7.006000000000000227e+01
5.692999999999999972e+01,-5.059999999999999609e+00,-7.006999999999999318e+01
5.697999999999999687e+01,-5.070000000000000284e+00,-7.006000000000000227e+01
5.707000000000000028e+01,-5.070000000000000284e+00,-7.001000000000000512e+01
5.714999999999999858e+01,-5.080000000000000071e+00,-6.995999999999999375e+01
5.721000000000000085e+01,-5.110000000000000320e+00,-6.995000000000000284e+01
5.725999999999999801e+01,-5.080000000000000071e+00,-6.995999999999999375e+01
5.729999999999999716e+01,-5.080000000000000071e+00,-6.990999999999999659e+01
5.729999999999999716e+01,-5.070000000000000284e+00,-6.992000000000000171e+01
5.728999999999999915e+01,-5.080000000000000071e+00,-6.992000000000000171e+01
5.727000000000000313e+01,-5.070000000000000284e+00,-6.993000000000000682e+01
5.721000000000000085e+01,-5.059999999999999609e+00,-6.995000000000000284e+01
5.717999999999999972e+01,-5.040000000000000036e+00,-6.995999999999999375e+01
5.713000000000000256e+01,-5.030000000000000249e+00,-7.000000000000000000e+01
5.709000000000000341e+01,-5.049999999999999822e+00,-7.001999999999999602e+01
5.704999999999999716e+01,-5.049999999999999822e+00,-7.003000000000000114e+01
5.702000000000000313e+01,-5.059999999999999609e+00,-7.003000000000000114e+01
5.700999999999999801e+01,-5.070000000000000284e+00,-7.001000000000000512e+01
5.703000000000000114e+01,-5.040000000000000036e+00,-7.001000000000000512e+01
5.704999999999999716e+01,-5.049999999999999822e+00,-6.998000000000000398e+01
5.706000000000000227e+01,-5.059999999999999609e+00,-6.996999999999999886e+01
5.704999999999999716e+01,-5.059999999999999609e+00,-6.996999999999999886e+01
5.703999999999999915e+01,-5.080000000000000071e+00,-6.998000000000000398e+01
5.702000000000000313e+01,-5.080000000000000071e+00,-7.000000000000000000e+01
5.702000000000000313e+01,-5.089999999999999858e+00,-6.998000000000000398e+01
5.700999999999999801e+01,-5.070000000000000284e+00,-7.000000000000000000e+01
5.700000000000000000e+01,-5.059999999999999609e+00,-6.998000000000000398e+01
5.697999999999999687e+01,-5.059999999999999609e+00,-6.996999999999999886e+01
5.697999999999999687e+01,-5.059999999999999609e+00,-6.998999999999999488e+01
5.699000000000000199e+01,-5.040000000000000036e+00,-6.998000000000000398e+01
5.699000000000000199e+01,-5.040000000000000036e+00,-6.996999999999999886e+01
5.699000000000000199e+01,-5.040000000000000036e+00,-6.996999999999999886e+01
5.699000000000000199e+01,-5.040000000000000036e+00,-6.998000000000000398e+01
5.699000000000000199e+01,-5.040000000000000036e+00,-6.998000000000000398e+01
5.696000000000000085e+01,-5.059999999999999609e+00,-6.998999999999999488e+01
5.695000000000000284e+01,-5.059999999999999609e+00,-7.000000000000000000e+01
5.696000000000000085e+01,-5.070000000000000284e+00,-7.000000000000000000e+01
5.696999999999999886e+01,-5.080000000000000071e+00,-7.001999999999999602e+01
5.699000000000000199e+01,-5.080000000000000071e+00,-7.001000000000000512e+01
5.702000000000000313e+01,-5.080000000000000071e+00,-7.001000000000000512e+01
5.707000000000000028e+01,-5.059999999999999609e+00,-6.998999999999999488e+01
5.710000000000000142e+01,-5.049999999999999822e+00,-6.998000000000000398e+01
5.711999999999999744e+01,-5.070000000000000284e+00,-6.996999999999999886e+01
5.711999999999999744e+01,-5.070000000000000284e+00,-6.998000000000000398e+01
5.714000000000000057e+01,-5.070000000000000284e+00,-6.995000000000000284e+01
5.713000000000000256e+01,-5.080000000000000071e+00,-6.995000000000000284e+01
5.710999999999999943e+01,-5.070000000000000284e+00,-6.995000000000000284e+01
5.706000000000000227e+01,-5.049999999999999822e+00,-6.995000000000000284e+01
5.697999999999999687e+01,-5.059999999999999609e+00,-6.998999999999999488e+01
5.690999999999999659e+01,-5.030000000000000249e+00,-6.998999999999999488e+01
5.688000000000000256e+01,-5.049999999999999822e+00,-7.000000000000000000e+01
5.688000000000000256e+01,-5.070000000000000284e+00,-7.001999999999999602e+01
5.686999999999999744e+01,-5.080000000000000071e+00,-7.004999999999999716e+01
5.689000000000000057e+01,-5.059999999999999609e+00,-7.001999999999999602e+01
5.695000000000000284e+01,-5.070000000000000284e+00,-7.000000000000000000e+01
5.700000000000000000e+01,-5.059999999999999609e+00,-7.000000000000000000e+01
5.703000000000000114e+01,-5.089999999999999858e+00,-7.000000000000000000e+01
5.706000000000000227e+01,-5.070000000000000284e+00,-6.998000000000000398e+01
5.707999999999999829e+01,-5.080000000000000071e+00,-6.996999999999999886e+01
5.709000000000000341e+01,-5.080000000000000071e+00,-6.998000000000000398e+01
5.710999999999999943e+01,-5.089999999999999858e+00,-6.995000000000000284e+01
5.711999999999999744e+01,-5.080000000000000071e+00,-6.995999999999999375e+01
5.711999999999999744e+01,-5.080000000000000071e+00,-6.996999999999999886e+01
5.710999999999999943e+01,-5.070000000000000284e+00,-6.995999999999999375e+01
5.709000000000000341e+01,-5.080000000000000071e+00,-6.996999999999999886e+01
5.709000000000000341e+01,-5.070000000000000284e+00,-6.995999999999999375e+01
5.703000000000000114e+01,-5.049999999999999822e+00,-6.998999999999999488e+01
5.700000000000000000e+01,-5.040000000000000036e+00,-6.996999999999999886e+01
5.693999999999999773e+01,-5.040000000000000036e+00,-6.998000000000000398e+01
5.688000000000000256e+01,-5.070000000000000284e+00,-7.000000000000000000e+01
5.681000000000000227e+01,-5.049999999999999822e+00,-7.006000000000000227e+01
5.679999999999999716e+01,-5.040000000000000036e+00,-7.003000000000000114e+01
5.678000000000000114e+01,-5.040000000000000036e+00,-7.004000000000000625e+01
5.678999999999999915e+01,-5.059999999999999609e+00,-7.004999999999999716e+01
5.681000000000000227e+01,-5.059999999999999609e+00,-7.003000000000000114e+01
5.685000000000000142e+01,-5.059999999999999609e+00,-7.001999999999999602e+01
5.692000000000000171e+01,-5.059999999999999609e+00,-6.998999999999999488e+01
5.699000000000000199e+01,-5.080000000000000071e+00,-6.996999999999999886e+01
5.699000000000000199e+01,-5.059999999999999609e+00,-6.995999999999999375e+01
5.699000000000000199e+01,-5.070000000000000284e+00,-6.995999999999999375e+01
5.697999999999999687e+01,-5.080000000000000071e+00,-6.998999999999999488e+01
5.696999999999999886e+01,-5.049999999999999822e+00,-7.000000000000000000e+01
5.696000000000000085e+01,-5.040000000000000036e+00,-7.001000000000000512e+01
5.692999999999999972e+01,-5.040000000000000036e+00,-7.001999999999999602e+01
5.692999999999999972e+01,-5.040000000000000036e+00,-7.001999999999999602e+01
5.695000000000000284e+01,-5.049999999999999822e+00,-7.003000000000000114e+01
5.697999999999999687e+01,-5.059999999999999609e+00,-7.001000000000000512e+01
5.700999999999999801e+01,-5.059999999999999609e+00,-6.998999999999999488e+01
5.706000000000000227e+01,-5.059999999999999609e+00,-6.996999999999999886e+01
5.709000000000000341e+01,-5.070000000000000284e+00,-6.995000000000000284e+01
5.709000000000000341e+01,-5.070000000000000284e+00,-6.995999999999999375e+01
5.709000000000000341e+01,-5.080000000000000071e+00,-6.995000000000000284e+01
