1.100000000000000000e+02,0.000000000000000000e+00,0.000000000000000000e+00
1.100000000000000000e+02,2.000000000000000111e-01,0.000000000000000000e+00
1.100000000000000000e+02,4.000000000000000222e-01,0.000000000000000000e+00
1.100000000000000000e+02,5.999999999999999778e-01,0.000000000000000000e+00
1.100000000000000000e+02,8.000000000000000444e-01,0.000000000000000000e+00
1.100000000000000000e+02,1.000000000000000000e+00,0.000000000000000000e+00
1.100000000000000000e+02,1.199999999999999956e+00,0.000000000000000000e+00
1.100000000000000000e+02,1.399999999999999911e+00,0.000000000000000000e+00
1.100000000000000000e+02,1.600000000000000089e+00,0.000000000000000000e+00
1.100000000000000000e+02,1.800000000000000044e+00,0.000000000000000000e+00
1.100000000000000000e+02,2.000000000000000000e+00,0.000000000000000000e+00
1.100000000000000000e+02,2.200000000000000178e+00,0.000000000000000000e+00
1.100000000000000000e+02,2.399999999999999911e+00,0.000000000000000000e+00
1.100000000000000000e+02,2.600000000000000089e+00,0.000000000000000000e+00
1.100000000000000000e+02,2.799999999999999822e+00,0.000000000000000000e+00
1.100000000000000000e+02,3.000000000000000000e+00,0.000000000000000000e+00
1.100000000000000000e+02,3.200000000000000178e+00,0.000000000000000000e+00
1.100000000000000000e+02,3.399999999999999911e+00,0.000000000000000000e+00
1.100000000000000000e+02,3.600000000000000089e+00,0.000000000000000000e+00
1.100000000000000000e+02,3.799999999999999822e+00,0.000000000000000000e+00
1.100000000000000000e+02,4.000000000000000000e+00,0.000000000000000000e+00
1.100000000000000000e+02,4.200000000000000178e+00,0.000000000000000000e+00
1.100000000000000000e+02,4.400000000000000355e+00,0.000000000000000000e+00
1.100000000000000000e+02,4.599999999999999645e+00,0.000000000000000000e+00
1.100000000000000000e+02,4.799999999999999822e+00,0.000000000000000000e+00
1.100000000000000000e+02,5.000000000000000000e+00,0.000000000000000000e+00
1.100000000000000000e+02,5.200000000000000178e+00,0.000000000000000000e+00
1.100000000000000000e+02,5.400000000000000355e+00,0.000000000000000000e+00
1.100000000000000000e+02,5.599999999999999645e+00,0.000000000000000000e+00
1.100000000000000000e+02,5.799999999999999822e+00,0.000000000000000000e+00
1.100000000000000000e+02,6.000000000000000000e+00,0.000000000000000000e+00
1.100000000000000000e+02,6.200000000000000178e+00,0.000000000000000000e+00
1.100000000000000000e+02,6.400000000000000355e+00,0.000000000000000000e+00
1.100000000000000000e+02,6.599999999999999645e+00,0.000000000000000000e+00
1.100000000000000000e+02,6.799999999999999822e+00,0.000000000000000000e+00
1.100000000000000000e+02,7.000000000000000000e+00,0.000000000000000000e+00
1.100000000000000000e+02,7.200000000000000178e+00,0.000000000000000000e+00
1.100000000000000000e+02,7.400000000000000355e+00,0.000000000000000000e+00
1.100000000000000000e+02,7.599999999999999645e+00,0.000000000000000000e+00
1.100000000000000000e+02,7.799999999999999822e+00,0.000000000000000000e+00
1.100000000000000000e+02,8.000000000000000000e+00,0.000000000000000000e+00
1.100000000000000000e+02,8.199999999999999289e+00,0.000000000000000000e+00
1.100000000000000000e+02,8.400000000000000355e+00,0.000000000000000000e+00
1.100000000000000000e+02,8.599999999999999645e+00,0.000000000000000000e+00
1.100000000000000000e+02,8.800000000000000711e+00,0.000000000000000000e+00
1.100000000000000000e+02,9.000000000000000000e+00,0.000000000000000000e+00
1.100000000000000000e+02,9.199999999999999289e+00,0.000000000000000000e+00
1.100000000000000000e+02,9.400000000000000355e+00,0.000000000000000000e+00
1.100000000000000000e+02,9.599999999999999645e+00,0.000000000000000000e+00
1.100000000000000000e+02,9.800000000000000711e+00,0.000000000000000000e+00
1.100000000000000000e+02,1.000000000000000000e+01,0.000000000000000000e+00
1.100000000000000000e+02,1.019999999999999929e+01,0.000000000000000000e+00
1.100000000000000000e+02,1.040000000000000036e+01,0.000000000000000000e+00
1.100000000000000000e+02,1.059999999999999964e+01,0.000000000000000000e+00
1.100000000000000000e+02,1.080000000000000071e+01,0.000000000000000000e+00
1.100000000000000000e+02,1.100000000000000000e+01,0.000000000000000000e+00
1.100000000000000000e+02,1.119999999999999929e+01,0.000000000000000000e+00
1.100000000000000000e+02,1.140000000000000036e+01,0.000000000000000000e+00
1.100000000000000000e+02,1.159999999999999964e+01,0.000000000000000000e+00
1.100000000000000000e+02,1.180000000000000071e+01,0.000000000000000000e+00
1.100000000000000000e+02,1.200000000000000000e+01,0.000000000000000000e+00
1.100000000000000000e+02,1.219999999999999929e+01,0.000000000000000000e+00
1.100000000000000000e+02,1.240000000000000036e+01,0.000000000000000000e+00
1.100000000000000000e+02,1.259999999999999964e+01,0.000000000000000000e+00
1.100000000000000000e+02,1.280000000000000071e+01,0.000000000000000000e+00
1.100000000000000000e+02,1.300000000000000000e+01,0.000000000000000000e+00
1.100000000000000000e+02,1.319999999999999929e+01,0.000000000000000000e+00
1.100000000000000000e+02,1.340000000000000036e+01,0.000000000000000000e+00
1.100000000000000000e+02,1.359999999999999964e+01,0.000000000000000000e+00
1.100000000000000000e+02,1.380000000000000071e+01,0.000000000000000000e+00
1.100000000000000000e+02,1.400000000000000000e+01,0.000000000000000000e+00
1.100000000000000000e+02,1.419999999999999929e+01,0.000000000000000000e+00
1.100000000000000000e+02,1.440000000000000036e+01,0.000000000000000000e+00
1.100000000000000000e+02,1.459999999999999964e+01,0.000000000000000000e+00
1.100000000000000000e+02,1.480000000000000071e+01,0.000000000000000000e+00
1.100000000000000000e+02,1.500000000000000000e+01,0.000000000000000000e+00
1.100000000000000000e+02,1.519999999999999929e+01,0.000000000000000000e+00
1.100000000000000000e+02,1.540000000000000036e+01,0.000000000000000000e+00
1.100000000000000000e+02,1.559999999999999964e+01,0.000000000000000000e+00
1.100000000000000000e+02,1.580000000000000071e+01,0.000000000000000000e+00
1.100000000000000000e+02,1.600000000000000000e+01,0.000000000000000000e+00
1.100000000000000000e+02,1.619999999999999929e+01,0.000000000000000000e+00
1.100000000000000000e+02,1.639999999999999858e+01,0.000000000000000000e+00
1.100000000000000000e+02,1.660000000000000142e+01,0.000000000000000000e+00
1.100000000000000000e+02,1.680000000000000071e+01,0.000000000000000000e+00
1.100000000000000000e+02,1.700000000000000000e+01,0.000000000000000000e+00
1.100000000000000000e+02,1.719999999999999929e+01,0.000000000000000000e+00
1.100000000000000000e+02,1.739999999999999858e+01,0.000000000000000000e+00
1.100000000000000000e+02,1.760000000000000142e+01,0.000000000000000000e+00
1.100000000000000000e+02,1.780000000000000071e+01,0.000000000000000000e+00
1.100000000000000000e+02,1.800000000000000000e+01,0.000000000000000000e+00
1.100000000000000000e+02,1.819999999999999929e+01,0.000000000000000000e+00
1.100000000000000000e+02,1.839999999999999858e+01,0.000000000000000000e+00
1.100000000000000000e+02,1.860000000000000142e+01,0.000000000000000000e+00
1.100000000000000000e+02,1.880000000000000071e+01,0.000000000000000000e+00
1.100000000000000000e+02,1.900000000000000000e+01,0.000000000000000000e+00
1.100000000000000000e+02,1.919999999999999929e+01,0.000000000000000000e+00
1.100000000000000000e+02,1.939999999999999858e+01,0.000000000000000000e+00
1.100000000000000000e+02,1.960000000000000142e+01,0.000000000000000000e+00
1.100000000000000000e+02,1.980000000000000071e+01,0.000000000000000000e+00
1.100000000000000000e+02,2.000000000000000000e+01,0.000000000000000000e+00
1.100000000000000000e+02,2.019999999999999929e+01,0.000000000000000000e+00
1.100000000000000000e+02,2.039999999999999858e+01,0.000000000000000000e+00
1.100000000000000000e+02,2.060000000000000142e+01,0.000000000000000000e+00
1.100000000000000000e+02,2.080000000000000071e+01,0.000000000000000000e+00
1.100000000000000000e+02,2.100000000000000000e+01,0.000000000000000000e+00
1.100000000000000000e+02,2.119999999999999929e+01,0.000000000000000000e+00
1.100000000000000000e+02,2.139999999999999858e+01,0.000000000000000000e+00
1.100000000000000000e+02,2.160000000000000142e+01,0.000000000000000000e+00
1.100000000000000000e+02,2.180000000000000071e+01,0.000000000000000000e+00
1.100000000000000000e+02,2.200000000000000000e+01,0.000000000000000000e+00
1.100000000000000000e+02,2.219999999999999929e+01,0.000000000000000000e+00
1.100000000000000000e+02,2.239999999999999858e+01,0.000000000000000000e+00
1.100000000000000000e+02,2.260000000000000142e+01,0.000000000000000000e+00
1.100000000000000000e+02,2.280000000000000071e+01,0.000000000000000000e+00
1.100000000000000000e+02,2.300000000000000000e+01,0.000000000000000000e+00
1.100000000000000000e+02,2.319999999999999929e+01,0.000000000000000000e+00
1.100000000000000000e+02,2.339999999999999858e+01,0.000000000000000000e+00
1.100000000000000000e+02,2.360000000000000142e+01,0.000000000000000000e+00
1.100000000000000000e+02,2.380000000000000071e+01,0.000000000000000000e+00
1.100000000000000000e+02,2.400000000000000000e+01,0.000000000000000000e+00
1.100000000000000000e+02,2.419999999999999929e+01,0.000000000000000000e+00
1.100000000000000000e+02,2.439999999999999858e+01,0.000000000000000000e+00
1.100000000000000000e+02,2.460000000000000142e+01,0.000000000000000000e+00
1.100000000000000000e+02,2.480000000000000071e+01,0.000000000000000000e+00
1.100000000000000000e+02,2.500000000000000000e+01,0.000000000000000000e+00
1.100000000000000000e+02,2.519999999999999929e+01,0.000000000000000000e+00
1.100000000000000000e+02,2.539999999999999858e+01,0.000000000000000000e+00
1.100000000000000000e+02,2.560000000000000142e+01,0.000000000000000000e+00
1.100000000000000000e+02,2.580000000000000071e+01,0.000000000000000000e+00
1.100000000000000000e+02,2.600000000000000000e+01,0.000000000000000000e+00
1.100000000000000000e+02,2.619999999999999929e+01,0.000000000000000000e+00
1.100000000000000000e+02,2.639999999999999858e+01,0.000000000000000000e+00
1.100000000000000000e+02,2.660000000000000142e+01,0.000000000000000000e+00
1.100000000000000000e+02,2.680000000000000071e+01,0.000000000000000000e+00
1.100000000000000000e+02,2.700000000000000000e+01,0.000000000000000000e+00
1.100000000000000000e+02,2.719999999999999929e+01,0.000000000000000000e+00
1.100000000000000000e+02,2.739999999999999858e+01,0.000000000000000000e+00
1.100000000000000000e+02,2.760000000000000142e+01,0.000000000000000000e+00
1.100000000000000000e+02,2.780000000000000071e+01,0.000000000000000000e+00
1.100000000000000000e+02,2.800000000000000000e+01,0.000000000000000000e+00
1.100000000000000000e+02,2.819999999999999929e+01,0.000000000000000000e+00
1.100000000000000000e+02,2.839999999999999858e+01,0.000000000000000000e+00
1.100000000000000000e+02,2.860000000000000142e+01,0.000000000000000000e+00
1.100000000000000000e+02,2.880000000000000071e+01,0.000000000000000000e+00
1.100000000000000000e+02,2.900000000000000000e+01,0.000000000000000000e+00
1.100000000000000000e+02,2.919999999999999929e+01,0.000000000000000000e+00
1.100000000000000000e+02,2.939999999999999858e+01,0.000000000000000000e+00
1.100000000000000000e+02,2.960000000000000142e+01,0.000000000000000000e+00
1.100000000000000000e+02,2.980000000000000071e+01,0.000000000000000000e+00
1.100000000000000000e+02,3.000000000000000000e+01,0.000000000000000000e+00
1.100000000000000000e+02,3.019999999999999929e+01,0.000000000000000000e+00
1.100000000000000000e+02,3.039999999999999858e+01,0.000000000000000000e+00
1.100000000000000000e+02,3.060000000000000142e+01,0.000000000000000000e+00
1.100000000000000000e+02,3.080000000000000071e+01,0.000000000000000000e+00
1.100000000000000000e+02,3.100000000000000000e+01,0.000000000000000000e+00
1.100000000000000000e+02,3.119999999999999929e+01,0.000000000000000000e+00
1.100000000000000000e+02,3.139999999999999858e+01,0.000000000000000000e+00
1.100000000000000000e+02,3.160000000000000142e+01,0.000000000000000000e+00
1.100000000000000000e+02,3.180000000000000071e+01,0.000000000000000000e+00
1.100000000000000000e+02,3.200000000000000000e+01,0.000000000000000000e+00
1.100000000000000000e+02,3.220000000000000284e+01,0.000000000000000000e+00
1.100000000000000000e+02,3.239999999999999858e+01,0.000000000000000000e+00
1.100000000000000000e+02,3.260000000000000142e+01,0.000000000000000000e+00
1.100000000000000000e+02,3.279999999999999716e+01,0.000000000000000000e+00
1.100000000000000000e+02,3.300000000000000000e+01,0.000000000000000000e+00
1.100000000000000000e+02,3.320000000000000284e+01,0.000000000000000000e+00
1.100000000000000000e+02,3.339999999999999858e+01,0.000000000000000000e+00
1.100000000000000000e+02,3.360000000000000142e+01,0.000000000000000000e+00
1.100000000000000000e+02,3.379999999999999716e+01,0.000000000000000000e+00
1.100000000000000000e+02,3.400000000000000000e+01,0.000000000000000000e+00
1.100000000000000000e+02,3.420000000000000284e+01,0.000000000000000000e+00
1.100000000000000000e+02,3.439999999999999858e+01,0.000000000000000000e+00
1.100000000000000000e+02,3.460000000000000142e+01,0.000000000000000000e+00
1.100000000000000000e+02,3.479999999999999716e+01,0.000000000000000000e+00
1.100000000000000000e+02,3.500000000000000000e+01,0.000000000000000000e+00
1.100000000000000000e+02,3.520000000000000284e+01,0.000000000000000000e+00
1.100000000000000000e+02,3.539999999999999858e+01,0.000000000000000000e+00
1.100000000000000000e+02,3.560000000000000142e+01,0.000000000000000000e+00
1.100000000000000000e+02,3.579999999999999716e+01,0.000000000000000000e+00
1.100000000000000000e+02,3.600000000000000000e+01,0.000000000000000000e+00
1.100000000000000000e+02,3.620000000000000284e+01,0.000000000000000000e+00
1.100000000000000000e+02,3.639999999999999858e+01,0.000000000000000000e+00
1.100000000000000000e+02,3.660000000000000142e+01,0.000000000000000000e+00
1.100000000000000000e+02,3.679999999999999716e+01,0.000000000000000000e+00
1.100000000000000000e+02,3.700000000000000000e+01,0.000000000000000000e+00
1.100000000000000000e+02,3.720000000000000284e+01,0.000000000000000000e+00
1.100000000000000000e+02,3.739999999999999858e+01,0.000000000000000000e+00
1.100000000000000000e+02,3.760000000000000142e+01,0.000000000000000000e+00
1.100000000000000000e+02,3.779999999999999716e+01,0.000000000000000000e+00
1.100000000000000000e+02,3.800000000000000000e+01,0.000000000000000000e+00
1.100000000000000000e+02,3.820000000000000284e+01,0.000000000000000000e+00
1.100000000000000000e+02,3.839999999999999858e+01,0.000000000000000000e+00
1.100000000000000000e+02,3.860000000000000142e+01,0.000000000000000000e+00
1.100000000000000000e+02,3.879999999999999716e+01,0.000000000000000000e+00
1.100000000000000000e+02,3.900000000000000000e+01,0.000000000000000000e+00
1.100000000000000000e+02,3.920000000000000284e+01,0.000000000000000000e+00
1.100000000000000000e+02,3.939999999999999858e+01,0.000000000000000000e+00
1.100000000000000000e+02,3.960000000000000142e+01,0.000000000000000000e+00
1.100000000000000000e+02,3.979999999999999716e+01,0.000000000000000000e+00
1.100000000000000000e+02,4.000000000000000000e+01,0.000000000000000000e+00
1.100000000000000000e+02,3.999780677134433660e+01,4.188716774873719184e-01
1.100000000000000000e+02,3.999122732588994467e+01,8.376974209064382837e-01
1.100000000000000000e+02,3.998026238514824371e+01,1.256431301226089481e+00
1.100000000000000000e+02,3.996491315155033419e+01,1.675027399489054325e+00
1.100000000000000000e+02,3.994518130831517766e+01,2.093439811847440879e+00
1.100000000000000000e+02,3.992106901926496931e+01,2.511622654596614712e+00
1.100000000000000000e+02,3.989257892858786647e+01,2.929530069206874199e+00
1.100000000000000000e+02,3.985971416054804450e+01,3.347116227352364248e+00
1.100000000000000000e+02,3.982247831914305891e+01,3.764335335936670468e+00
1.100000000000000000e+02,3.978087548770860593e+01,4.181141642114561741e+00
1.100000000000000000e+02,3.973491022847080956e+01,4.597489438309310117e+00
1.100000000000000000e+02,3.968458758204585024e+01,5.013333067225046236e+00
1.100000000000000000e+02,3.962991306688724080e+01,5.428626926853612034e+00
1.100000000000000000e+02,3.957089267868064297e+01,5.843325475475334763e+00
1.100000000000000000e+02,3.950753288968638799e+01,6.257383236653197400e+00
1.100000000000000000e+02,3.943984064802972256e+01,6.670754804219857448e+00
1.100000000000000000e+02,3.936782337693885836e+01,7.083394847256939464e+00
1.100000000000000000e+02,3.929148897393092454e+01,7.495258115066103954e+00
1.100000000000000000e+02,3.921084580994593694e+01,7.906299442131290434e+00
1.100000000000000000e+02,3.912590272842877681e+01,8.316473753071640829e+00
1.100000000000000000e+02,3.903666904435949192e+01,8.725736067584525912e+00
1.100000000000000000e+02,3.894315454323171366e+01,9.134041505378151626e+00
1.100000000000000000e+02,3.884536947997963807e+01,9.541345291093195513e+00
1.100000000000000000e+02,3.874332457785340011e+01,9.947602759212943013e+00
1.100000000000000000e+02,3.863703102724316096e+01,1.035276935896135519e+01
1.100000000000000000e+02,3.852650048445199360e+01,1.075680065918859007e+01
1.100000000000000000e+02,3.841174507041758091e+01,1.115965235324337712e+01
1.100000000000000000e+02,3.829277736938304599e+01,1.156128026383174578e+01
1.100000000000000000e+02,3.816961042751694322e+01,1.196164034786157515e+01
1.100000000000000000e+02,3.804225775148258037e+01,1.236068870127241937e+01
1.100000000000000000e+02,3.791073330695687815e+01,1.275838156385009903e+01
1.100000000000000000e+02,3.777505151709888764e+01,1.315467532402548834e+01
1.100000000000000000e+02,3.763522726096806537e+01,1.354952652365705212e+01
1.100000000000000000e+02,3.749127587189269661e+01,1.394289186279649861e+01
1.100000000000000000e+02,3.734321313578833923e+01,1.433472820443712870e+01
1.100000000000000000e+02,3.719105528942678518e+01,1.472499257924430260e+01
1.100000000000000000e+02,3.703481901865548309e+01,1.511364219026751776e+01
1.100000000000000000e+02,3.687452145656772018e+01,1.550063441763357375e+01
1.100000000000000000e+02,3.671018018162384777e+01,1.588592682322034655e+01
1.100000000000000000e+02,3.654181321572352914e+01,1.626947715531059657e+01
1.100000000000000000e+02,3.636943902222947145e+01,1.665124335322536098e+01
1.100000000000000000e+02,3.619307650394273423e+01,1.703118355193639388e+01
1.100000000000000000e+02,3.601274500102972809e+01,1.740925608665712687e+01
1.100000000000000000e+02,3.582846428890146484e+01,1.778541949741170924e+01
1.100000000000000000e+02,3.564025457604486036e+01,1.815963253358155427e+01
1.100000000000000000e+02,3.544813650180668674e+01,1.853185415842894912e+01
1.100000000000000000e+02,3.525213113413023081e+01,1.890204355359720623e+01
1.100000000000000000e+02,3.505225996724495729e+01,1.927016012358685160e+01
1.100000000000000000e+02,3.484854491930938281e+01,1.963616350020737400e+01
1.100000000000000000e+02,3.464100833000755131e+01,2.000001354700410516e+01
1.100000000000000000e+02,3.442967295809918937e+01,2.036167036365959149e+01
1.100000000000000000e+02,3.421456197892399587e+01,2.072109429036913752e+01
1.100000000000000000e+02,3.399569898186014427e+01,2.107824591218996702e+01
1.100000000000000000e+02,3.377310796773748081e+01,2.143308606336351119e+01
1.100000000000000000e+02,3.354681334620553201e+01,2.178557583161038025e+01
1.100000000000000000e+02,3.331683993305673397e+01,2.213567656239755266e+01
1.100000000000000000e+02,3.308321294750506780e+01,2.248334986317726703e+01
1.100000000000000000e+02,3.284595800942050658e+01,2.282855760759722585e+01
1.100000000000000000e+02,3.260510113651949382e+01,2.317126193968155334e+01
1.100000000000000000e+02,3.236066874151181594e+01,2.351142527798218751e+01
1.100000000000000000e+02,3.211268762920412456e+01,2.384901031970006358e+01
1.100000000000000000e+02,3.186118499356049938e+01,2.418398004477582219e+01
1.100000000000000000e+02,3.160618841472031093e+01,2.451629771994947049e+01
1.100000000000000000e+02,3.134772585597374572e+01,2.484592690278861227e+01
1.100000000000000000e+02,3.108582566069532405e+01,2.517283144568477127e+01
1.100000000000000000e+02,3.082051654923570538e+01,2.549697549981738476e+01
1.100000000000000000e+02,3.055182761577217931e+01,2.581832351908505530e+01
1.100000000000000000e+02,3.027978832511816520e+01,2.613684026400356331e+01
1.100000000000000000e+02,3.000442850949204399e+01,2.645249080557029231e+01
1.100000000000000000e+02,2.972577836524573769e+01,2.676524052909460494e+01
1.100000000000000000e+02,2.944386844955330318e+01,2.707505513799370789e+01
1.100000000000000000e+02,2.915872967706001262e+01,2.738190065755370028e+01
1.100000000000000000e+02,2.887039331649220131e+01,2.768574343865525478e+01
1.100000000000000000e+02,2.857889098722828791e+01,2.798655016146366137e+01
1.100000000000000000e+02,2.828425465583136145e+01,2.828428783908270461e+01
1.100000000000000000e+02,2.798651663254367605e+01,2.857892382117206509e+01
1.100000000000000000e+02,2.768570956774345504e+01,2.887042579752779758e+01
1.100000000000000000e+02,2.738186644836441985e+01,2.915876180162550924e+01
1.100000000000000000e+02,2.707502059427837793e+01,2.944390021412587544e+01
1.100000000000000000e+02,2.676520565464133483e+01,2.972580976634203509e+01
1.100000000000000000e+02,2.645245560420346465e+01,3.000445954366858103e+01
1.100000000000000000e+02,2.613680473958341466e+01,3.027981898897168378e+01
1.100000000000000000e+02,2.581828767550724280e+01,3.055185790594003947e+01
1.100000000000000000e+02,2.549693934101256687e+01,3.082054646239624418e+01
1.100000000000000000e+02,2.517279497561817436e+01,3.108585519356822502e+01
1.100000000000000000e+02,2.484589012545959719e+01,3.134775500532038706e+01
1.100000000000000000e+02,2.451626063939108846e+01,3.160621717734413139e+01
1.100000000000000000e+02,2.418394266505437784e+01,3.186121336630735712e+01
1.100000000000000000e+02,2.384897264491467439e+01,3.211271560896261690e+01
1.100000000000000000e+02,2.351138731226432554e+01,3.236069632521364525e+01
1.100000000000000000e+02,2.317122368719459402e+01,3.260512832113979442e+01
1.100000000000000000e+02,2.282851907253598256e+01,3.284598479197816800e+01
1.100000000000000000e+02,2.248331104976756478e+01,3.308323932506307585e+01
1.100000000000000000e+02,2.213563747489571654e+01,3.331686590272249049e+01
1.100000000000000000e+02,2.178553647430280549e+01,3.354683890513116751e+01
1.100000000000000000e+02,2.143304644056616937e+01,3.377313311312016708e+01
1.100000000000000000e+02,2.107820602824795486e+01,3.399572371094239998e+01
1.100000000000000000e+02,2.072105414965619019e+01,3.421458628899399912e+01
1.100000000000000000e+02,2.036162997057758872e+01,3.442969684649106199e+01
1.100000000000000000e+02,1.999997290598262012e+01,3.464103179410165012e+01
1.100000000000000000e+02,1.963612261570315454e+01,3.484856795653260519e+01
1.100000000000000000e+02,1.927011900008334422e+01,3.505228257507101119e+01
1.100000000000000000e+02,1.890200219560408712e+01,3.525215331007991182e+01
1.100000000000000000e+02,1.853181257048158770e+01,3.544815824344814814e+01
1.100000000000000000e+02,1.815959072024054066e+01,3.564027588099386890e+01
1.100000000000000000e+02,1.778537746326235691e+01,3.582848515482170626e+01
1.100000000000000000e+02,1.740921383630896102e+01,3.601276542563301319e+01
1.100000000000000000e+02,1.703114109002265053e+01,3.619309648498926180e+01
1.100000000000000000e+02,1.665120068440247536e+01,3.636945855752810530e+01
1.100000000000000000e+02,1.626943428425768801e+01,3.654183230313199005e+01
1.100000000000000000e+02,1.588588375463871927e+01,3.671019881904898341e+01
1.100000000000000000e+02,1.550059115624619110e+01,3.687453964196573253e+01
1.100000000000000000e+02,1.511359874081848176e+01,3.703483675003212028e+01
1.100000000000000000e+02,1.472494894649834407e+01,3.719107256483761859e+01
1.100000000000000000e+02,1.433468439317907617e+01,3.734322995333891271e+01
1.100000000000000000e+02,1.394284787783075785e+01,3.749129222973876807e+01
1.100000000000000000e+02,1.354948236980708032e+01,3.763524315731581282e+01
1.100000000000000000e+02,1.315463100613325764e+01,3.777506695020510108e+01
1.100000000000000000e+02,1.275833708677557077e+01,3.791074827512913714e+01
1.100000000000000000e+02,1.236064406989301645e+01,3.804227225307944593e+01
1.100000000000000000e+02,1.196159556707163674e+01,3.816962446094815675e+01
1.100000000000000000e+02,1.156123533854199792e+01,3.829279093310968562e+01
1.100000000000000000e+02,1.115960728838039273e+01,3.841175816295222489e+01
1.100000000000000000e+02,1.075675545969424718e+01,3.852651310435889798e+01
1.100000000000000000e+02,1.035272402979229334e+01,3.863704317313840875e+01
1.100000000000000000e+02,9.947557305340023248e+00,3.874333624840504342e+01
1.100000000000000000e+02,9.541299717500956845e+00,3.884538067390788285e+01
1.100000000000000000e+02,9.133995817064256784e+00,3.894316525930901207e+01
1.100000000000000000e+02,8.725690269559221335e+00,3.903667928141069865e+01
1.100000000000000000e+02,8.316427850357205998e+00,3.912591248533129118e+01
1.100000000000000000e+02,7.906253439761481872e+00,3.921085508562979527e+01
1.100000000000000000e+02,7.495212018085606331e+00,3.929149776737894939e+01
1.100000000000000000e+02,7.083348660720814038e+00,3.936783168718674375e+01
1.100000000000000000e+02,6.670708533192986067e+00,3.943984847416615480e+01
1.100000000000000000e+02,6.257336886209728277e+00,3.950754023085313804e+01
1.100000000000000000e+02,5.843279050698122035e+00,3.957089953407266592e+01
1.100000000000000000e+02,5.428580432833665093e+00,3.962991943575276821e+01
1.100000000000000000e+02,5.013286509060964846e+00,3.968459346368647545e+01
1.100000000000000000e+02,4.597442821106728417e+00,3.973491562224153029e+01
1.100000000000000000e+02,4.181094970985590464e+00,3.978088039301793799e+01
1.100000000000000000e+02,3.764288615999332954e+00,3.982248273545307171e+01
1.100000000000000000e+02,3.347069463730034666e+00,3.985971808737445343e+01
1.100000000000000000e+02,2.929483267027719329e+00,3.989258236550004000e+01
1.100000000000000000e+02,2.511575818993027731e+00,3.992107196588600004e+01
1.100000000000000000e+02,2.093392947955481809e+00,3.994518376432195339e+01
1.100000000000000000e+02,1.674980512447885150e+00,3.996491511667352370e+01
1.100000000000000000e+02,1.256384396177409268e+00,3.998026385917233938e+01
1.100000000000000000e+02,8.376505029939224078e-01,3.999122830865331224e+01
1.100000000000000000e+02,4.188247518561056260e-01,3.999780726273920095e+01
1.100000000000000000e+02,-4.692820408467765334e-05,3.999999999997247357e+01
1.100000000000000000e+02,-4.189186031180608949e-01,3.999780627989441939e+01
1.100000000000000000e+02,-8.377443388177996386e-01,3.999122634307153845e+01
1.100000000000000000e+02,-1.256478206273037745e+00,3.998026091106910940e+01
1.100000000000000000e+02,-1.675074286527915124e+00,3.996491118637214157e+01
1.100000000000000000e+02,-2.093486675736513813e+00,3.994517885225341303e+01
1.100000000000000000e+02,-2.511669490196738685e+00,3.992106607258897810e+01
1.100000000000000000e+02,-2.929576871381990966e+00,3.989257549162078931e+01
1.100000000000000000e+02,-3.347162990970078855e+00,3.985971023366678168e+01
1.100000000000000000e+02,-3.764382055868818355e+00,3.982247390277822774e+01
1.100000000000000000e+02,-4.181188313237768739e+00,3.978087058234451945e+01
1.100000000000000000e+02,-4.597536055505552888e+00,3.973490483464539835e+01
1.100000000000000000e+02,-5.013379625382218485e+00,3.968458170035060562e+01
1.100000000000000000e+02,-5.428673420866077848e+00,3.962990669796715792e+01
1.100000000000000000e+02,-5.843371900244493489e+00,3.957088582323414272e+01
1.100000000000000000e+02,-6.257429587088044975e+00,3.950752554846525300e+01
1.100000000000000000e+02,-6.670801075237536182e+00,3.943983282183901196e+01
1.100000000000000000e+02,-7.083441033783303808e+00,3.936781506663679409e+01
1.100000000000000000e+02,-7.495304212036274727e+00,3.929148018042882740e+01
1.100000000000000000e+02,-7.906345444490206376e+00,3.921083653420809867e+01
1.100000000000000000e+02,-8.316519655774616382e+00,3.912589297147241751e+01
1.100000000000000000e+02,-8.725781865597806330e+00,3.903665880725455395e+01
1.100000000000000000e+02,-9.134087193679462757e+00,3.894314382710082612e+01
1.100000000000000000e+02,-9.541390864672292693e+00,3.884535828599793206e+01
1.100000000000000000e+02,-9.947648213072158185e+00,3.874331290724842347e+01
1.100000000000000000e+02,-1.035281468811615646e+01,3.863701888129474327e+01
1.100000000000000000e+02,-1.075684585866811638e+01,3.852648786449206852e+01
1.100000000000000000e+02,-1.115969741809098892e+01,3.841173197783007254e+01
1.100000000000000000e+02,-1.156132518910556684e+01,3.829276380560370541e+01
1.100000000000000000e+02,-1.196168512863503608e+01,3.816959639403319215e+01
1.100000000000000000e+02,-1.236073333263479768e+01,3.804224324983334782e+01
1.100000000000000000e+02,-1.275842604090705201e+01,3.791071833873245112e+01
1.100000000000000000e+02,-1.315471964189960374e+01,3.777503608394068380e+01
1.100000000000000000e+02,-1.354957067748836330e+01,3.763521136456851934e+01
1.100000000000000000e+02,-1.394293584774303341e+01,3.749125951399501844e+01
1.100000000000000000e+02,-1.433477201567543702e+01,3.734319631818637220e+01
1.100000000000000000e+02,-1.472503621196998225e+01,3.719103801396477138e+01
1.100000000000000000e+02,-1.511368563969573842e+01,3.703480128722786446e+01
1.100000000000000000e+02,-1.550067767899961169e+01,3.687450327111896087e+01
1.100000000000000000e+02,-1.588596989178009622e+01,3.671016154414818544e+01
1.100000000000000000e+02,-1.626952002634109817e+01,3.654179412826477602e+01
1.100000000000000000e+02,-1.665128602202532804e+01,3.636941948688078696e+01
1.100000000000000000e+02,-1.703122601382668933e+01,3.619305652284638342e+01
1.100000000000000000e+02,-1.740929833698132256e+01,3.601272457637688262e+01
1.100000000000000000e+02,-1.778546153153657272e+01,3.582844342293191175e+01
1.100000000000000000e+02,-1.815967434689756743e+01,3.564023327104678884e+01
1.100000000000000000e+02,-1.853189574635080561e+01,3.544811476011643947e+01
1.100000000000000000e+02,-1.890208491156430881e+01,3.525210895813203393e+01
1.100000000000000000e+02,-1.927020124706382376e+01,3.505223735937065754e+01
1.100000000000000000e+02,-1.963620438468456442e+01,3.484852188203819168e+01
1.100000000000000000e+02,-2.000005418799805668e+01,3.464098486586577508e+01
1.100000000000000000e+02,-2.036171075671355268e+01,3.442964906965993777e+01
1.100000000000000000e+02,-2.072113443105355657e+01,3.421453766880690495e+01
1.100000000000000000e+02,-2.107828579610295705e+01,3.399567425273110644e+01
1.100000000000000000e+02,-2.143312568613134061e+01,3.377308282230831082e+01
1.100000000000000000e+02,-2.178561518888796655e+01,3.354678778723372545e+01
1.100000000000000000e+02,-2.213571564986891360e+01,3.331681396334511902e+01
1.100000000000000000e+02,-2.248338867655601803e+01,3.308318656990152107e+01
1.100000000000000000e+02,-2.282859614262703118e+01,3.284593122681764044e+01
1.100000000000000000e+02,-2.317130019213661285e+01,3.260507395185432955e+01
1.100000000000000000e+02,-2.351146324366768425e+01,3.236064115776545691e+01
1.100000000000000000e+02,-2.384904799445262213e+01,3.211265964940143647e+01
1.100000000000000000e+02,-2.418401742446397407e+01,3.186115662076979405e+01
1.100000000000000000e+02,-2.451633480047410885e+01,3.160615965205298750e+01
1.100000000000000000e+02,-2.484596368008343248e+01,3.134769670658396379e+01
1.100000000000000000e+02,-2.517286791571671500e+01,3.108579612777964485e+01
1.100000000000000000e+02,-2.549701165858710539e+01,3.082048663603274719e+01
1.100000000000000000e+02,-2.581835936262732645e+01,3.055179732556226924e+01
1.100000000000000000e+02,-2.613687578838772652e+01,3.027975766122297330e+01
1.100000000000000000e+02,-2.645252600690070466e+01,3.000439747527422440e+01
1.100000000000000000e+02,-2.676527540351102630e+01,2.972574696410853079e+01
1.100000000000000000e+02,-2.707508968167176278e+01,2.944383668494021222e+01
1.100000000000000000e+02,-2.738193486670528287e+01,2.915869755245438810e+01
1.100000000000000000e+02,-2.768577730952893745e+01,2.887036083541687503e+01
1.100000000000000000e+02,-2.798658369034512106e+01,2.857885815324518219e+01
1.100000000000000000e+02,-2.828432102229511358e+01,2.828422147254109476e+01
1.100000000000000000e+02,-2.857895665507650307e+01,2.798648310358517577e+01
1.100000000000000000e+02,-2.887045827852364965e+01,2.768567569679355600e+01
1.100000000000000000e+02,-2.915879392615086374e+01,2.738183223913745579e+01
1.100000000000000000e+02,-2.944393197865791123e+01,2.707498605052578355e+01
1.100000000000000000e+02,-2.972584116739741233e+01,2.676517078015123374e+01
1.100000000000000000e+02,-3.000449057780381068e+01,2.645242040280023943e+01
1.100000000000000000e+02,-3.027984965278351481e+01,2.613676921512729479e+01
1.100000000000000000e+02,-3.055188819606584261e+01,2.581825183189389605e+01
1.100000000000000000e+02,-3.082057637551435647e+01,2.549690318217265883e+01
1.100000000000000000e+02,-3.108588472639833356e+01,2.517275850551693139e+01
1.100000000000000000e+02,-3.134778415462387358e+01,2.484585334809638368e+01
1.100000000000000000e+02,-3.160624593992444886e+01,2.451622355879896276e+01
1.100000000000000000e+02,-3.186124173901035306e+01,2.418390528529965522e+01
1.100000000000000000e+02,-3.211274358867690637e+01,2.384893497009646524e+01
1.100000000000000000e+02,-3.236072390887093064e+01,2.351134934651410902e+01
1.100000000000000000e+02,-3.260515550571520293e+01,2.317118543467574199e+01
1.100000000000000000e+02,-3.284601157449061049e+01,2.282848053744332972e+01
1.100000000000000000e+02,-3.308326570257554522e+01,2.248327223632692196e+01
1.100000000000000000e+02,-3.331689187234238148e+01,2.213559838736341590e+01
1.100000000000000000e+02,-3.354686446401062483e+01,2.178549711696524582e+01
1.100000000000000000e+02,-3.377315825845636255e+01,2.143300681773933647e+01
1.100000000000000000e+02,-3.399574843997785933e+01,2.107816614427694191e+01
1.100000000000000000e+02,-3.421461059901690049e+01,2.072101400891472878e+01
1.100000000000000000e+02,-3.442972073483553430e+01,2.036158957746757281e+01
1.100000000000000000e+02,-3.464105525814806441e+01,1.999993226493361220e+01
1.100000000000000000e+02,-3.484859099370785884e+01,1.963608173117191313e+01
1.100000000000000000e+02,-3.505230518284881924e+01,1.927007787655332649e+01
1.100000000000000000e+02,-3.525217548598106987e+01,1.890196083758495504e+01
1.100000000000000000e+02,-3.544817998504080947e+01,1.853177098250872135e+01
1.100000000000000000e+02,-3.564029718589382867e+01,1.815954890687453727e+01
1.100000000000000000e+02,-3.582850602069263601e+01,1.778533542908852993e+01
1.100000000000000000e+02,-3.601278585018673084e+01,1.740917158593684277e+01
1.100000000000000000e+02,-3.619311646598597321e+01,1.703109862808547348e+01
1.100000000000000000e+02,-3.636947809277667432e+01,1.665115801555667474e+01
1.100000000000000000e+02,-3.654185139049015163e+01,1.626939141318239379e+01
1.100000000000000000e+02,-3.671021745642359235e+01,1.588584068603523392e+01
1.100000000000000000e+02,-3.687455782731299081e+01,1.550054789483747442e+01
1.100000000000000000e+02,-3.703485448135779023e+01,1.511355529134864817e+01
1.100000000000000000e+02,-3.719108984019725739e+01,1.472490531373212441e+01
1.100000000000000000e+02,-3.734324677083807842e+01,1.433464058190129897e+01
1.100000000000000000e+02,-3.749130858753323281e+01,1.394280389284583421e+01
1.100000000000000000e+02,-3.763525905361176882e+01,1.354943821593846209e+01
1.100000000000000000e+02,-3.777508238325931700e+01,1.315458668822292765e+01
1.100000000000000000e+02,-3.791076324324921387e+01,1.275829260968348855e+01
1.100000000000000000e+02,-3.804228675462395870e+01,1.236059943849660669e+01
1.100000000000000000e+02,-3.816963849432683986e+01,1.196155078626524038e+01
1.100000000000000000e+02,-3.829280449678362430e+01,1.156119041323634455e+01
1.100000000000000000e+02,-3.841177125543400450e+01,1.115956222350205529e+01
1.100000000000000000e+02,-3.852652572421277455e+01,1.075671026018510190e+01
1.100000000000000000e+02,-3.863705531898047241e+01,1.035267870060898687e+01
1.100000000000000000e+02,-3.874334791890336760e+01,9.947511851453416654e+00
1.100000000000000000e+02,-3.884539186778265929e+01,9.541254143895589124e+00
1.100000000000000000e+02,-3.894317597533270714e+01,9.133950128737795993e+00
1.100000000000000000e+02,-3.903668951840818124e+01,8.725644471521913914e+00
1.100000000000000000e+02,-3.912592224217994641e+01,8.316381947631329652e+00
1.100000000000000000e+02,-3.921086436125968078e+01,7.906207437380795788e+00
1.100000000000000000e+02,-3.929150656077289483e+01,7.495165921094796957e+00
1.100000000000000000e+02,-3.936783999738044315e+01,7.083302474174945296e+00
1.100000000000000000e+02,-3.943985630024829447e+01,6.670662262156938027e+00
1.100000000000000000e+02,-3.950754757196550315e+01,6.257290535757650929e+00
1.100000000000000000e+02,-3.957090638941023286e+01,5.843232625912872180e+00
1.100000000000000000e+02,-3.962992580456376146e+01,5.428533938806250347e+00
1.100000000000000000e+02,-3.968459934527247412e+01,5.013239950889987639e+00
1.100000000000000000e+02,-3.973492101595756054e+01,4.597396203897823774e+00
1.100000000000000000e+02,-3.978088529827251563e+01,4.181048299850869121e+00
1.100000000000000000e+02,-3.982248715170827325e+01,3.764241896056817360e+00
1.100000000000000000e+02,-3.985972201414598715e+01,3.347022700103102100e+00
1.100000000000000000e+02,-3.989258580235730278e+01,2.929436464844535237e+00
1.100000000000000000e+02,-3.992107491245209872e+01,2.511528983385987068e+00
1.100000000000000000e+02,-3.994518622027375443e+01,2.093346084060643708e+00
1.100000000000000000e+02,-3.996491708174170299e+01,1.674933625404411597e+00
1.100000000000000000e+02,-3.998026533314140352e+01,1.256337491127001105e+00
1.100000000000000000e+02,-3.999122929136163407e+01,8.376035850802543425e-01
1.100000000000000000e+02,-3.999780775407900535e+01,4.187778262242632943e-01
1.100000000000000000e+02,-3.999999999988988719e+01,-9.385640816929072890e-05
1.100000000000000000e+02,-3.999780578838944933e+01,-4.189655287481736656e-01
1.100000000000000000e+02,-3.999122536019807939e+01,-8.377912567280088041e-01
1.100000000000000000e+02,-3.998025943693495776e+01,-1.256525111318258059e+00
1.100000000000000000e+02,-3.996490922113893873e+01,-1.675121173564471988e+00
1.100000000000000000e+02,-3.994517639613668081e+01,-2.093533539622707274e+00
1.100000000000000000e+02,-3.992106312585804773e+01,-2.511716325793408089e+00
1.100000000000000000e+02,-3.989257205459880140e+01,-2.929623673553077623e+00
1.100000000000000000e+02,-3.985970630673065074e+01,-3.347209754583190033e+00
1.100000000000000000e+02,-3.982246948635858530e+01,-3.764428775795789495e+00
1.100000000000000000e+02,-3.978086567692568565e+01,-4.181234984355224782e+00
1.100000000000000000e+02,-3.973489944076529667e+01,-4.597582672695472716e+00
1.100000000000000000e+02,-3.968457581860074157e+01,-5.013426183532493141e+00
1.100000000000000000e+02,-3.962990032899253379e+01,-5.428719914871075858e+00
1.100000000000000000e+02,-3.957087896773318647e+01,-5.843418325005615976e+00
1.100000000000000000e+02,-3.950751820718975438e+01,-6.257475937514284325e+00
1.100000000000000000e+02,-3.943982499559400878e+01,-6.670847346246038256e+00
1.100000000000000000e+02,-3.936780675628053672e+01,-7.083487220299925724e+00
1.100000000000000000e+02,-3.929147138687264373e+01,-7.495350308996133748e+00
1.100000000000000000e+02,-3.921082725841630179e+01,-7.906391446838245685e+00
1.100000000000000000e+02,-3.912588321446219197e+01,-8.316565558466152197e+00
1.100000000000000000e+02,-3.903664857009588474e+01,-8.725827663599083905e+00
1.100000000000000000e+02,-3.894313311091632102e+01,-9.134132881968206163e+00
1.100000000000000000e+02,-3.884534709196275060e+01,-9.541436438238260820e+00
1.100000000000000000e+02,-3.874330123659012770e+01,-9.947693666917686528e+00
1.100000000000000000e+02,-3.863700673529314145e+01,-1.035286001725671312e+01
1.100000000000000000e+02,-3.852647524447910854e+01,-1.075689105813284208e+01
1.100000000000000000e+02,-3.841171888518968558e+01,-1.115974248292324589e+01
1.100000000000000000e+02,-3.829275024177164966e+01,-1.156137011436348061e+01
1.100000000000000000e+02,-3.816958236049689646e+01,-1.196172990939203729e+01
1.100000000000000000e+02,-3.804222874813176247e+01,-1.236077796398016737e+01
1.100000000000000000e+02,-3.791070337045583472e+01,-1.275847051794645282e+01
1.100000000000000000e+02,-3.777502065073048954e+01,-1.315476395975561630e+01
1.100000000000000000e+02,-3.763519546811716765e+01,-1.354961483130103161e+01
1.100000000000000000e+02,-3.749124315604574775e+01,-1.394297983267038354e+01
1.100000000000000000e+02,-3.734317950053301161e+01,-1.433481582689402067e+01
1.100000000000000000e+02,-3.719102073845156298e+01,-1.472507984467539899e+01
1.100000000000000000e+02,-3.703478355574927150e+01,-1.511372908910316326e+01
1.100000000000000000e+02,-3.687448508561944749e+01,-1.550072094034431913e+01
1.100000000000000000e+02,-3.671014290662198931e+01,-1.588601296031798782e+01
1.100000000000000000e+02,-3.654177504075572358e+01,-1.626956289734921413e+01
1.100000000000000000e+02,-3.636939995148204474e+01,-1.665132869080236233e+01
1.100000000000000000e+02,-3.619303654170022355e+01,-1.703126847569353686e+01
1.100000000000000000e+02,-3.601270415167446970e+01,-1.740934058728154810e+01
1.100000000000000000e+02,-3.582842255691304700e+01,-1.778550356563695090e+01
1.100000000000000000e+02,-3.564021196599966856e+01,-1.815971616018857304e+01
1.100000000000000000e+02,-3.544809301837740634e+01,-1.853193733424713940e+01
1.100000000000000000e+02,-3.525208678208532120e+01,-1.890212626950538066e+01
1.100000000000000000e+02,-3.505221475144811905e+01,-1.927024237051426425e+01
1.100000000000000000e+02,-3.484849884471904602e+01,-1.963624526913471513e+01
1.100000000000000000e+02,-3.464096140167632143e+01,-2.000009482896447111e+01
1.100000000000000000e+02,-3.442962518117330006e+01,-2.036175114973948652e+01
1.100000000000000000e+02,-3.421451335864273346e+01,-2.072117457170944732e+01
1.100000000000000000e+02,-3.399564952355527225e+01,-2.107832567998692497e+01
1.100000000000000000e+02,-3.377305767683266424e+01,-2.143316530886966476e+01
1.100000000000000000e+02,-3.354676222821575493e+01,-2.178565454613556085e+01
1.100000000000000000e+02,-3.331678799358765275e+01,-2.213575473730980292e+01
1.100000000000000000e+02,-3.308316019225245697e+01,-2.248342748990381779e+01
1.100000000000000000e+02,-3.284590444416956956e+01,-2.282863467762541632e+01
1.100000000000000000e+02,-3.260504676714428740e+01,-2.317133844455977609e+01
1.100000000000000000e+02,-3.236061357397455396e+01,-2.351150120932080867e+01
1.100000000000000000e+02,-3.211263166955455972e+01,-2.384908566917234296e+01
1.100000000000000000e+02,-3.186112824793524112e+01,-2.418405480411882991e+01
1.100000000000000000e+02,-3.160613088934216819e+01,-2.451637188096498932e+01
1.100000000000000000e+02,-3.134766755715103770e+01,-2.484600045734403650e+01
1.100000000000000000e+02,-3.108576659482118387e+01,-2.517290438571400557e+01
1.100000000000000000e+02,-3.082045672278738024e+01,-2.549704781732172165e+01
1.100000000000000000e+02,-3.055176703531031990e+01,-2.581839520613404915e+01
1.100000000000000000e+02,-3.027972699728611161e+01,-2.613691131273591139e+01
1.100000000000000000e+02,-3.000436644101510097e+01,-2.645256120819469459e+01
1.100000000000000000e+02,-2.972571556293041795e+01,-2.676531027789060246e+01
1.100000000000000000e+02,-2.944380492028660257e+01,-2.707512422531255325e+01
1.100000000000000000e+02,-2.915866542780863568e+01,-2.738196907581917117e+01
1.100000000000000000e+02,-2.887032835430181521e+01,-2.768581118036451016e+01
1.100000000000000000e+02,-2.857882531922274438e+01,-2.798661721918805156e+01
1.100000000000000000e+02,-2.828418828921190453e+01,-2.828435420546858126e+01
1.100000000000000000e+02,-2.798644957458816052e+01,-2.857898948894159474e+01
1.100000000000000000e+02,-2.768564182580555411e+01,-2.887049075947975751e+01
1.100000000000000000e+02,-2.738179802987281164e+01,-2.915882605063607969e+01
1.100000000000000000e+02,-2.707495150673593898e+01,-2.944396374314941767e+01
1.100000000000000000e+02,-2.676513590562429457e+01,-2.972587256841186587e+01
1.100000000000000000e+02,-2.645238520136060956e+01,-3.000452161189773292e+01
1.100000000000000000e+02,-2.613673369063519658e+01,-3.027988031655367962e+01
1.100000000000000000e+02,-2.581821598824500086e+01,-3.055191848614961003e+01
1.100000000000000000e+02,-2.549686702329762156e+01,-3.082060628859007778e+01
1.100000000000000000e+02,-2.517272203538099262e+01,-3.108591425918568873e+01
1.100000000000000000e+02,-2.484581657069891492e+01,-3.134781330388426568e+01
1.100000000000000000e+02,-2.451618647817301877e+01,-3.160627470246132020e+01
1.100000000000000000e+02,-2.418386790551155130e+01,-3.186127011166956535e+01
1.100000000000000000e+02,-2.384889729524532598e+01,-3.211277156834707114e+01
1.100000000000000000e+02,-2.351131138073140647e+01,-3.236075149248375737e+01
1.100000000000000000e+02,-2.317114718212486579e+01,-3.260518269024584015e+01
1.100000000000000000e+02,-2.282844200231910392e+01,-3.284603835695794771e+01
1.100000000000000000e+02,-2.248323342285516091e+01,-3.308329208004258959e+01
1.100000000000000000e+02,-2.213555929980046599e+01,-3.331691784191654193e+01
1.100000000000000000e+02,-2.178545775959750586e+01,-3.354689002284403898e+01
1.100000000000000000e+02,-2.143296719488278512e+01,-3.377318340374620931e+01
1.100000000000000000e+02,-2.107812626027668301e+01,-3.399577316896667156e+01
1.100000000000000000e+02,-2.072097386814449038e+01,-3.421463490899286342e+01
1.100000000000000000e+02,-2.036154918432925953e+01,-3.442974462313277684e+01
1.100000000000000000e+02,-1.999989162385679009e+01,-3.464107872214696471e+01
1.100000000000000000e+02,-1.963604084661334070e+01,-3.484861403083532139e+01
1.100000000000000000e+02,-1.927003675299646090e+01,-3.505232779057855197e+01
1.100000000000000000e+02,-1.890191947953946894e+01,-3.525219766183388970e+01
1.100000000000000000e+02,-1.853172939450999479e+01,-3.544820172658486968e+01
1.100000000000000000e+02,-1.815950709348317105e+01,-3.564031849074492442e+01
1.100000000000000000e+02,-1.778529339488983751e+01,-3.582852688651443884e+01
1.100000000000000000e+02,-1.740912933554035291e+01,-3.601280627469107287e+01
1.100000000000000000e+02,-1.703105616612442574e+01,-3.619313644693307452e+01
1.100000000000000000e+02,-1.665111534668751148e+01,-3.636949762797539165e+01
1.100000000000000000e+02,-1.626934854208424142e+01,-3.654187047779821995e+01
1.100000000000000000e+02,-1.588579761740939844e+01,-3.671023609374788066e+01
1.100000000000000000e+02,-1.550050463340692808e+01,-3.687457601260969398e+01
1.100000000000000000e+02,-1.511351184185749474e+01,-3.703487221263269191e+01
1.100000000000000000e+02,-1.472486168094510006e+01,-3.719110711550591475e+01
1.100000000000000000e+02,-1.433459677060323756e+01,-3.734326358828605663e+01
1.100000000000000000e+02,-1.394275990784114327e+01,-3.749132494527630399e+01
1.100000000000000000e+02,-1.354939406205060415e+01,-3.763527494985612520e+01
1.100000000000000000e+02,-1.315454237029387485e+01,-3.777509781626174856e+01
1.100000000000000000e+02,-1.275824813257321466e+01,-3.791077821131732151e+01
1.100000000000000000e+02,-1.236055480708253285e+01,-3.804230125611631053e+01
1.100000000000000000e+02,-1.196150600544171105e+01,-3.816965252765319860e+01
1.100000000000000000e+02,-1.156114548791409113e+01,-3.829281806040506098e+01
1.100000000000000000e+02,-1.115951715860764892e+01,-3.841178434786311158e+01
1.100000000000000000e+02,-1.075666506066042594e+01,-3.852653834401382227e+01
1.100000000000000000e+02,-1.035263337141068440e+01,-3.863706746476955090e+01
1.100000000000000000e+02,-9.947466397552354067e+00,-3.874335958934855739e+01
1.100000000000000000e+02,-9.541208570276305423e+00,-3.884540306160415923e+01
1.100000000000000000e+02,-9.133904440397959235e+00,-3.894318669130299071e+01
1.100000000000000000e+02,-8.725598673471772315e+00,-3.903669975535211023e+01
1.100000000000000000e+02,-8.316336044893162693e+00,-3.912593199897493434e+01
1.100000000000000000e+02,-7.906161434988366210e+00,-3.921087363683577109e+01
1.100000000000000000e+02,-7.495119824092791205e+00,-3.929151535411291718e+01
1.100000000000000000e+02,-7.083256287618425517e+00,-3.936784830752011288e+01
1.100000000000000000e+02,-6.670615991110789622e+00,-3.943986412627631211e+01
1.100000000000000000e+02,-6.257244185296022110e+00,-3.950755491302365385e+01
1.100000000000000000e+02,-5.843186201118621526e+00,-3.957091324469346461e+01
1.100000000000000000e+02,-5.428487444770386361e+00,-3.962993217332033424e+01
1.100000000000000000e+02,-5.013193392711113638e+00,-3.968460522680398128e+01
1.100000000000000000e+02,-4.597349586681577449e+00,-3.973492640961901401e+01
1.100000000000000000e+02,-4.181001628709360318e+00,-3.978089020347243832e+01
1.100000000000000000e+02,-3.764195176108069418e+00,-3.982249156790877009e+01
1.100000000000000000e+02,-3.346975936470491853e+00,-3.985972594086275933e+01
1.100000000000000000e+02,-2.929389662656229909e+00,-3.989258923915973298e+01
1.100000000000000000e+02,-2.511482147774381168e+00,-3.992107785896330796e+01
1.100000000000000000e+02,-2.093299220161798146e+00,-3.994518867617062341e+01
1.100000000000000000e+02,-1.674886738357488358e+00,-3.996491904675492179e+01
1.100000000000000000e+02,-1.256290586073700588e+00,-3.998026680705548586e+01
1.100000000000000000e+02,-8.375566671642522554e-01,-3.999123027401493857e+01
1.100000000000000000e+02,-4.187309005906455495e-01,-3.999780824536377821e+01
1.100000000000000000e+02,1.407846134705790500e-04,-3.999999999975224796e+01
1.100000000000000000e+02,4.190124543789442435e-01,-3.999780529682941932e+01
1.100000000000000000e+02,8.378381746383167794e-01,-3.999122437726955326e+01
1.100000000000000000e+02,1.256572016363017852e+00,-3.998025796274573196e+01
1.100000000000000000e+02,1.675168060600009667e+00,-3.996490725585067594e+01
1.100000000000000000e+02,2.093580403507323329e+00,-3.994517393996488863e+01
1.100000000000000000e+02,2.511763161387941423e+00,-3.992106017907207871e+01
1.100000000000000000e+02,2.929670475721470435e+00,-3.989256861752181038e+01
1.100000000000000000e+02,3.347256518193048702e+00,-3.985970237973954511e+01
1.100000000000000000e+02,3.764475495718949460e+00,-3.982246506988400370e+01
1.100000000000000000e+02,4.181281655468312763e+00,-3.978086077145194110e+01
1.100000000000000000e+02,4.597629289880467596e+00,-3.973489404683034110e+01
1.100000000000000000e+02,5.013472741677288624e+00,-3.968456993679608047e+01
1.100000000000000000e+02,5.428766408870036919e+00,-3.962989395996315523e+01
1.100000000000000000e+02,5.843464749760144628e+00,-3.957087211217754685e+01
1.100000000000000000e+02,6.257522287933374727e+00,-3.950751086585963634e+01
1.100000000000000000e+02,6.670893617246838048e+00,-3.943981716929447856e+01
1.100000000000000000e+02,7.083533406808291133e+00,-3.936779844586983046e+01
1.100000000000000000e+02,7.495396405947185592e+00,-3.929146259326208934e+01
1.100000000000000000e+02,7.906437449176925369e+00,-3.921081798257022655e+01
1.100000000000000000e+02,8.316611461147779494e+00,-3.912587345739779465e+01
1.100000000000000000e+02,8.725873461589902291e+00,-3.903663833288313612e+01
1.100000000000000000e+02,9.134178570245943263e+00,-3.894312239467785730e+01
1.100000000000000000e+02,9.541482011792673745e+00,-3.884533589787372421e+01
1.100000000000000000e+02,9.947739120751116104e+00,-3.874328956587808648e+01
1.100000000000000000e+02,1.035290534638462390e+01,-3.863699458923792207e+01
1.100000000000000000e+02,1.075693625758438010e+01,-3.852646262441267311e+01
1.100000000000000000e+02,1.115978754774177339e+01,-3.841170579249595818e+01
1.100000000000000000e+02,1.156141503960712313e+01,-3.829273667788639557e+01
1.100000000000000000e+02,1.196177469013423078e+01,-3.816956832690755164e+01
1.100000000000000000e+02,1.236082259531018757e+01,-3.804221424637726301e+01
1.100000000000000000e+02,1.275851499496996411e+01,-3.791068840212646762e+01
1.100000000000000000e+02,1.315480827759520821e+01,-3.777500521746770801e+01
1.100000000000000000e+02,1.354965898509674460e+01,-3.763517957161340632e+01
1.100000000000000000e+02,1.394302381758025078e+01,-3.749122679804423086e+01
1.100000000000000000e+02,1.433485963809459207e+01,-3.734316268282758244e+01
1.100000000000000000e+02,1.472512347736227412e+01,-3.719100346288648495e+01
1.100000000000000000e+02,1.511377253849151892e+01,-3.703476582421900076e+01
1.100000000000000000e+02,1.550076420166943691e+01,-3.687446690006844818e+01
1.100000000000000000e+02,1.588605602883576395e+01,-3.671012426904451331e+01
1.100000000000000000e+02,1.626960576833669592e+01,-3.654175595319559022e+01
1.100000000000000000e+02,1.665137135955825443e+01,-3.636938041603242766e+01
1.100000000000000000e+02,1.703131093753871994e+01,-3.619301656050340910e+01
1.100000000000000000e+02,1.740938283755960114e+01,-3.601268372692161535e+01
1.100000000000000000e+02,1.778554559971464499e+01,-3.582840169084397530e+01
1.100000000000000000e+02,1.815975797345639364e+01,-3.564019066090257581e+01
1.100000000000000000e+02,1.853197892211977660e+01,-3.544807127658863521e+01
1.100000000000000000e+02,1.890216762742225498e+01,-3.525206460598910496e+01
1.100000000000000000e+02,1.927028349394000273e+01,-3.505219214347632573e+01
1.100000000000000000e+02,1.963628615355966645e+01,-3.484847580735090133e+01
1.100000000000000000e+02,2.000013546990519231e+01,-3.464093793743813166e+01
1.100000000000000000e+02,2.036179154273922620e+01,-3.442960129263818914e+01
1.100000000000000000e+02,2.072121471233865719e+01,-3.421448904843034455e+01
1.100000000000000000e+02,2.107836556384372528e+01,-3.399562479433150486e+01
1.100000000000000000e+02,2.143320493158033102e+01,-3.377303253130936156e+01
1.100000000000000000e+02,2.178569390335501055e+01,-3.354673666915040542e+01
1.100000000000000000e+02,2.213579382472207158e+01,-3.331676202378310592e+01
1.100000000000000000e+02,2.248346630322252082e+01,-3.308313381455658941e+01
1.100000000000000000e+02,2.282867321259422511e+01,-3.284587766147500787e+01
1.100000000000000000e+02,2.317137669695290114e+01,-3.260501958238804576e+01
1.100000000000000000e+02,2.351153917494342949e+01,-3.236058599013776416e+01
1.100000000000000000e+02,2.384912334386109478e+01,-3.211260368966209455e+01
1.100000000000000000e+02,2.418409218374225489e+01,-3.186109987505542662e+01
1.100000000000000000e+02,2.451640896142397708e+01,-3.160610212658641061e+01
1.100000000000000000e+02,2.484603723457230018e+01,-3.134763840767350018e+01
1.100000000000000000e+02,2.517294085567849748e+01,-3.108573706181843832e+01
1.100000000000000000e+02,2.549708397602309162e+01,-3.082042680949805202e+01
1.100000000000000000e+02,2.581843104960708146e+01,-3.055173674501475389e+01
1.100000000000000000e+02,2.613694683704996180e+01,-3.027969633330598498e+01
1.100000000000000000e+02,2.645259640945411661e+01,-3.000433540671306432e+01
1.100000000000000000e+02,2.676534515223517374e+01,-2.972568416170973649e+01
1.100000000000000000e+02,2.707515876891790185e+01,-2.944377315559077601e+01
1.100000000000000000e+02,2.738200328489719837e+01,-2.915863330312103585e+01
1.100000000000000000e+02,2.768584505116379901e+01,-2.887029587314527390e+01
1.100000000000000000e+02,2.798665074799427543e+01,-2.857879248515919102e+01
1.100000000000000000e+02,2.828438738860493018e+01,-2.828415510584197179e+01
1.100000000000000000e+02,2.857902232276915200e+01,-2.798641604555078288e+01
1.100000000000000000e+02,2.887052324039792239e+01,-2.768560795477757708e+01
1.100000000000000000e+02,2.915885817508294764e+01,-2.738176382056857960e+01
1.100000000000000000e+02,2.944399550760217465e+01,-2.707491696290688310e+01
1.100000000000000000e+02,2.972590396938717561e+01,-2.676510103105855265e+01
1.100000000000000000e+02,3.000455264595212057e+01,-2.645234999988257485e+01
1.100000000000000000e+02,3.027991098028389416e+01,-2.613669816610512342e+01
1.100000000000000000e+02,3.055194877619302218e+01,-2.581818014455855348e+01
1.100000000000000000e+02,3.082063620162503881e+01,-2.549683086438548330e+01
1.100000000000000000e+02,3.108594379193189283e+01,-2.517268556520839340e+01
1.100000000000000000e+02,3.134784245310310880e+01,-2.484577979326522268e+01
1.100000000000000000e+02,3.160630346495625886e+01,-2.451614939751130962e+01
1.100000000000000000e+02,3.186129848428645772e+01,-2.418383052568813696e+01
1.100000000000000000e+02,3.211279954797453939e+01,-2.384885962035933460e+01
1.100000000000000000e+02,3.236077907605351811e+01,-2.351127341491432077e+01
1.100000000000000000e+02,3.260520987473303478e+01,-2.317110892954006829e+01
1.100000000000000000e+02,3.284606513938149419e+01,-2.282840346716142577e+01
1.100000000000000000e+02,3.308331845746548083e+01,-2.248319460935043068e+01
1.100000000000000000e+02,3.331694381144619399e+01,-2.213552021220502297e+01
1.100000000000000000e+02,3.354691558163259657e+01,-2.178541840219775239e+01
1.100000000000000000e+02,3.377320854899085134e+01,-2.143292757199471055e+01
1.100000000000000000e+02,3.399579789790995221e+01,-2.107808637624538761e+01
1.100000000000000000e+02,3.421465921892295370e+01,-2.072093372734371997e+01
1.100000000000000000e+02,3.442976851138381988e+01,-2.036150879116090806e+01
1.100000000000000000e+02,3.464110218609934577e+01,-1.999985098275043072e+01
1.100000000000000000e+02,3.484863706791594495e+01,-1.963599996202573195e+01
1.100000000000000000e+02,3.505235039826114729e+01,-1.926999562941107058e+01
1.100000000000000000e+02,3.525221983763925238e+01,-1.890187812146595903e+01
1.100000000000000000e+02,3.544822346808117430e+01,-1.853168780648375957e+01
1.100000000000000000e+02,3.564033979554797327e+01,-1.815946528006481131e+01
1.100000000000000000e+02,3.582854775228791766e+01,-1.778525136066467383e+01
1.100000000000000000e+02,3.601282669914679957e+01,-1.740908708511791758e+01
1.100000000000000000e+02,3.619315642783128339e+01,-1.703101370413796189e+01
1.100000000000000000e+02,3.636951716312494653e+01,-1.665107267779345790e+01
1.100000000000000000e+02,3.654188956505687003e+01,-1.626930567096173519e+01
1.100000000000000000e+02,3.671025473102248782e+01,-1.588575454875974202e+01
1.100000000000000000e+02,3.687459419785646730e+01,-1.550046137195309548e+01
1.100000000000000000e+02,3.703488994385741506e+01,-1.511346839234359862e+01
1.100000000000000000e+02,3.719112439076414489e+01,-1.472481804813587480e+01
1.100000000000000000e+02,3.734328040568337315e+01,-1.433455295928352236e+01
1.100000000000000000e+02,3.749134130296849321e+01,-1.394271592281534744e+01
1.100000000000000000e+02,3.763529084604936514e+01,-1.354934990814219020e+01
1.100000000000000000e+02,3.777511324921285052e+01,-1.315449805234482383e+01
1.100000000000000000e+02,3.791079317933387927e+01,-1.275820365544349499e+01
1.100000000000000000e+02,3.804231575755692063e+01,-1.236051017564957100e+01
1.100000000000000000e+02,3.816966656092759536e+01,-1.196146122459985506e+01
1.100000000000000000e+02,3.829283162397434381e+01,-1.156110056257406704e+01
1.100000000000000000e+02,3.841179744023988718e+01,-1.115947209369603854e+01
1.100000000000000000e+02,3.852655096376235377e+01,-1.075661986111911439e+01
1.100000000000000000e+02,3.863707961050594264e+01,-1.035258804219631301e+01
1.100000000000000000e+02,3.874337125974088281e+01,-9.947420943635790991e+00
1.100000000000000000e+02,3.884541425537263848e+01,-9.541162996642094996e+00
1.100000000000000000e+02,3.894319740722009016e+01,-9.133858752043767737e+00
1.100000000000000000e+02,3.903670999224270588e+01,-8.725552875407853293e+00
1.100000000000000000e+02,3.912594175571643973e+01,-8.316290142141797403e+00
1.100000000000000000e+02,3.921088291235825096e+01,-7.906115432583311176e+00
1.100000000000000000e+02,3.929152414739919408e+01,-7.495073727078741754e+00
1.100000000000000000e+02,3.936785661760590216e+01,-7.083210101050443797e+00
1.100000000000000000e+02,3.943987195225032849e+01,-6.670569720053761031e+00
1.100000000000000000e+02,3.950756225402767541e+01,-6.257197834824097527e+00
1.100000000000000000e+02,3.957092009992248904e+01,-5.843139776314658640e+00
1.100000000000000000e+02,3.962993854202259314e+01,-5.428440950725398118e+00
1.100000000000000000e+02,3.968461110828106797e+01,-5.013146834523701578e+00
1.100000000000000000e+02,3.973493180322596885e+01,-4.597302969457379263e+00
1.100000000000000000e+02,3.978089510861778422e+01,-4.180954957560487628e+00
1.100000000000000000e+02,3.982249598405459068e+01,-3.764148456152548228e+00
1.100000000000000000e+02,3.985972986752479841e+01,-3.346929172831698995e+00
1.100000000000000000e+02,3.989259267590737323e+01,-2.929342860462333498e+00
1.100000000000000000e+02,3.992108080541967041e+01,-2.511435312157776600e+00
1.100000000000000000e+02,3.994519113201259586e+01,-2.093252356258545444e+00
1.100000000000000000e+02,3.996492101171319433e+01,-1.674839851306750838e+00
1.100000000000000000e+02,3.998026828091457929e+01,-1.256243681017179759e+00
1.100000000000000000e+02,3.999123125661321865e+01,-8.375097492456233805e-01
1.100000000000000000e+02,3.999780873659350533e+01,-4.186839749549948753e-01
1.100000000000000000e+02,3.999780873659350533e+01,-4.186839749549948753e-01
1.100000000000000000e+02,3.999780873659350533e+01,-4.186839749549948753e-01
1.100000000000000000e+02,3.999780873659350533e+01,-4.186839749549948753e-01
1.100000000000000000e+02,3.999780873659350533e+01,-4.186839749549948753e-01
1.100000000000000000e+02,3.999780873659350533e+01,-4.186839749549948753e-01
1.100000000000000000e+02,3.999780873659350533e+01,-4.186839749549948753e-01
1.100000000000000000e+02,3.999780873659350533e+01,-4.186839749549948753e-01
1.100000000000000000e+02,3.999780873659350533e+01,-4.186839749549948753e-01
1.100000000000000000e+02,3.999780873659350533e+01,-4.186839749549948753e-01
1.100000000000000000e+02,3.999780873659350533e+01,-4.186839749549948753e-01
1.100000000000000000e+02,3.999780873659350533e+01,-4.186839749549948753e-01
1.100000000000000000e+02,3.999780873659350533e+01,-4.186839749549948753e-01
1.100000000000000000e+02,3.999780873659350533e+01,-4.186839749549948753e-01
1.100000000000000000e+02,3.999780873659350533e+01,-4.186839749549948753e-01
1.100000000000000000e+02,3.999780873659350533e+01,-4.186839749549948753e-01
1.100000000000000000e+02,3.999780873659350533e+01,-4.186839749549948753e-01
1.100000000000000000e+02,3.999780873659350533e+01,-4.186839749549948753e-01
1.100000000000000000e+02,3.999780873659350533e+01,-4.186839749549948753e-01
1.100000000000000000e+02,3.999780873659350533e+01,-4.186839749549948753e-01
1.100000000000000000e+02,3.999780873659350533e+01,-4.186839749549948753e-01
1.100000000000000000e+02,3.999780873659350533e+01,-4.186839749549948753e-01
1.100000000000000000e+02,3.999780873659350533e+01,-4.186839749549948753e-01
1.100000000000000000e+02,3.999780873659350533e+01,-4.186839749549948753e-01
1.100000000000000000e+02,3.999780873659350533e+01,-4.186839749549948753e-01
1.100000000000000000e+02,3.999780873659350533e+01,-4.186839749549948753e-01
1.100000000000000000e+02,3.999780873659350533e+01,-4.186839749549948753e-01
1.100000000000000000e+02,3.999780873659350533e+01,-4.186839749549948753e-01
1.100000000000000000e+02,3.999780873659350533e+01,-4.186839749549948753e-01
1.100000000000000000e+02,3.999780873659350533e+01,-4.186839749549948753e-01
1.100000000000000000e+02,3.999780873659350533e+01,-4.186839749549948753e-01
1.100000000000000000e+02,3.999780873659350533e+01,-4.186839749549948753e-01
1.100000000000000000e+02,3.999780873659350533e+01,-4.186839749549948753e-01
1.100000000000000000e+02,3.999780873659350533e+01,-4.186839749549948753e-01
1.100000000000000000e+02,3.999780873659350533e+01,-4.186839749549948753e-01
1.100000000000000000e+02,3.999780873659350533e+01,-4.186839749549948753e-01
1.100000000000000000e+02,3.999780873659350533e+01,-4.186839749549948753e-01
1.100000000000000000e+02,3.999780873659350533e+01,-4.186839749549948753e-01
1.100000000000000000e+02,3.999780873659350533e+01,-4.186839749549948753e-01
1.100000000000000000e+02,3.999780873659350533e+01,-4.186839749549948753e-01
1.100000000000000000e+02,3.999780873659350533e+01,-4.186839749549948753e-01
1.100000000000000000e+02,3.999780873659350533e+01,-4.186839749549948753e-01
1.100000000000000000e+02,3.999780873659350533e+01,-4.186839749549948753e-01
1.100000000000000000e+02,3.999780873659350533e+01,-4.186839749549948753e-01
1.100000000000000000e+02,3.999780873659350533e+01,-4.186839749549948753e-01
1.100000000000000000e+02,3.999780873659350533e+01,-4.186839749549948753e-01
1.100000000000000000e+02,3.999780873659350533e+01,-4.186839749549948753e-01
1.100000000000000000e+02,3.999780873659350533e+01,-4.186839749549948753e-01
1.100000000000000000e+02,3.999780873659350533e+01,-4.186839749549948753e-01
1.100000000000000000e+02,3.999780873659350533e+01,-4.186839749549948753e-01
1.100000000000000000e+02,3.999780873659350533e+01,-4.186839749549948753e-01
1.100000000000000000e+02,3.999780873659350533e+01,-4.186839749549948753e-01
1.100000000000000000e+02,3.999780873659350533e+01,-4.186839749549948753e-01
1.100000000000000000e+02,3.999780873659350533e+01,-4.186839749549948753e-01
1.100000000000000000e+02,3.999780873659350533e+01,-4.186839749549948753e-01
1.100000000000000000e+02,3.999780873659350533e+01,-4.186839749549948753e-01
1.100000000000000000e+02,3.999780873659350533e+01,-4.186839749549948753e-01
1.100000000000000000e+02,3.999780873659350533e+01,-4.186839749549948753e-01
1.100000000000000000e+02,3.999780873659350533e+01,-4.186839749549948753e-01
1.100000000000000000e+02,3.999780873659350533e+01,-4.186839749549948753e-01
1.100000000000000000e+02,3.999780873659350533e+01,-4.186839749549948753e-01
1.100000000000000000e+02,3.999780873659350533e+01,-4.186839749549948753e-01
1.100000000000000000e+02,3.999780873659350533e+01,-4.186839749549948753e-01
1.100000000000000000e+02,3.999780873659350533e+01,-4.186839749549948753e-01
1.100000000000000000e+02,3.999780873659350533e+01,-4.186839749549948753e-01
1.100000000000000000e+02,3.999780873659350533e+01,-4.186839749549948753e-01
1.100000000000000000e+02,3.999780873659350533e+01,-4.186839749549948753e-01
1.100000000000000000e+02,3.999780873659350533e+01,-4.186839749549948753e-01
1.100000000000000000e+02,3.999780873659350533e+01,-4.186839749549948753e-01
1.100000000000000000e+02,3.999780873659350533e+01,-4.186839749549948753e-01
1.100000000000000000e+02,3.999780873659350533e+01,-4.186839749549948753e-01
1.100000000000000000e+02,3.999780873659350533e+01,-4.186839749549948753e-01
1.100000000000000000e+02,3.999780873659350533e+01,-4.186839749549948753e-01
1.100000000000000000e+02,3.999780873659350533e+01,-4.186839749549948753e-01
1.100000000000000000e+02,3.999780873659350533e+01,-4.186839749549948753e-01
1.100000000000000000e+02,3.999780873659350533e+01,-4.186839749549948753e-01
1.100000000000000000e+02,3.999780873659350533e+01,-4.186839749549948753e-01
1.100000000000000000e+02,3.999780873659350533e+01,-4.186839749549948753e-01
1.100000000000000000e+02,3.999780873659350533e+01,-4.186839749549948753e-01
1.100000000000000000e+02,3.999780873659350533e+01,-4.186839749549948753e-01
1.100000000000000000e+02,3.999780873659350533e+01,-4.186839749549948753e-01
1.100000000000000000e+02,3.999780873659350533e+01,-4.186839749549948753e-01
1.100000000000000000e+02,3.999780873659350533e+01,-4.186839749549948753e-01
1.100000000000000000e+02,3.999780873659350533e+01,-4.186839749549948753e-01
1.100000000000000000e+02,3.999780873659350533e+01,-4.186839749549948753e-01
1.100000000000000000e+02,3.999780873659350533e+01,-4.186839749549948753e-01
1.100000000000000000e+02,3.999780873659350533e+01,-4.186839749549948753e-01
1.100000000000000000e+02,3.999780873659350533e+01,-4.186839749549948753e-01
1.100000000000000000e+02,3.999780873659350533e+01,-4.186839749549948753e-01
1.100000000000000000e+02,3.999780873659350533e+01,-4.186839749549948753e-01
1.100000000000000000e+02,3.999780873659350533e+01,-4.186839749549948753e-01
1.100000000000000000e+02,3.999780873659350533e+01,-4.186839749549948753e-01
1.100000000000000000e+02,3.999780873659350533e+01,-4.186839749549948753e-01
1.100000000000000000e+02,3.999780873659350533e+01,-4.186839749549948753e-01
1.100000000000000000e+02,3.999780873659350533e+01,-4.186839749549948753e-01
1.100000000000000000e+02,3.999780873659350533e+01,-4.186839749549948753e-01
1.100000000000000000e+02,3.999780873659350533e+01,-4.186839749549948753e-01
1.100000000000000000e+02,3.999780873659350533e+01,-4.186839749549948753e-01
1.100000000000000000e+02,3.999780873659350533e+01,-4.186839749549948753e-01
1.100000000000000000e+02,3.999780873659350533e+01,-4.186839749549948753e-01
1.100000000000000000e+02,3.999780873659350533e+01,-4.186839749549948753e-01
1.100000000000000000e+02,3.999780873659350533e+01,-4.186839749549948753e-01
1.100000000000000000e+02,3.999780873659350533e+01,-4.186839749549948753e-01
1.100000000000000000e+02,3.999780873659350533e+01,-4.186839749549948753e-01
1.100000000000000000e+02,3.999780873659350533e+01,-4.186839749549948753e-01
1.100000000000000000e+02,3.999780873659350533e+01,-4.186839749549948753e-01
1.100000000000000000e+02,3.999780873659350533e+01,-4.186839749549948753e-01
1.100000000000000000e+02,3.999780873659350533e+01,-4.186839749549948753e-01
1.100000000000000000e+02,3.999780873659350533e+01,-4.186839749549948753e-01
1.100000000000000000e+02,3.999780873659350533e+01,-4.186839749549948753e-01
1.100000000000000000e+02,3.999780873659350533e+01,-4.186839749549948753e-01
1.100000000000000000e+02,3.999780873659350533e+01,-4.186839749549948753e-01
1.100000000000000000e+02,3.999780873659350533e+01,-4.186839749549948753e-01
1.100000000000000000e+02,3.999780873659350533e+01,-4.186839749549948753e-01
1.100000000000000000e+02,3.999780873659350533e+01,-4.186839749549948753e-01
1.100000000000000000e+02,3.999780873659350533e+01,-4.186839749549948753e-01
1.100000000000000000e+02,3.999780873659350533e+01,-4.186839749549948753e-01
1.100000000000000000e+02,3.999780873659350533e+01,-4.186839749549948753e-01
1.100000000000000000e+02,3.999780873659350533e+01,-4.186839749549948753e-01
1.100000000000000000e+02,3.999780873659350533e+01,-4.186839749549948753e-01
1.100000000000000000e+02,3.999780873659350533e+01,-4.186839749549948753e-01
1.100000000000000000e+02,3.999780873659350533e+01,-4.186839749549948753e-01
1.100000000000000000e+02,3.999780873659350533e+01,-4.186839749549948753e-01
1.100000000000000000e+02,3.999780873659350533e+01,-4.186839749549948753e-01
1.100000000000000000e+02,3.999780873659350533e+01,-4.186839749549948753e-01
1.100000000000000000e+02,3.999780873659350533e+01,-4.186839749549948753e-01
1.100000000000000000e+02,3.999780873659350533e+01,-4.186839749549948753e-01
1.100000000000000000e+02,3.999780873659350533e+01,-4.186839749549948753e-01
1.100000000000000000e+02,3.999780873659350533e+01,-4.186839749549948753e-01
1.100000000000000000e+02,3.999780873659350533e+01,-4.186839749549948753e-01
1.100000000000000000e+02,3.999780873659350533e+01,-4.186839749549948753e-01
